Proyect_3_FSM_BCD_binario/simulation/qsim/BCD_binario.msim.vcd
$comment
	File created using the following command:
		vcd file BCD_binario.msim.vcd -direction
$end
$date
	Sun Jun 16 19:38:59 2024
$end
$version
	Questa Intel Starter FPGA Edition Version 2023.3
$end
$timescale
	1ps
$end

$scope module bcd_binario_vhd_vec_tst $end
$var wire 1 ! binary [7] $end
$var wire 1 " binary [6] $end
$var wire 1 # binary [5] $end
$var wire 1 $ binary [4] $end
$var wire 1 % binary [3] $end
$var wire 1 & binary [2] $end
$var wire 1 ' binary [1] $end
$var wire 1 ( binary [0] $end
$var wire 1 ) cent [3] $end
$var wire 1 * cent [2] $end
$var wire 1 + cent [1] $end
$var wire 1 , cent [0] $end
$var wire 1 - charge $end
$var wire 1 . clk $end
$var wire 1 / dec [3] $end
$var wire 1 0 dec [2] $end
$var wire 1 1 dec [1] $end
$var wire 1 2 dec [0] $end
$var wire 1 3 reset $end
$var wire 1 4 start $end
$var wire 1 5 uni [3] $end
$var wire 1 6 uni [2] $end
$var wire 1 7 uni [1] $end
$var wire 1 8 uni [0] $end
$var wire 1 9 valid $end

$scope module i1 $end
$var wire 1 : gnd $end
$var wire 1 ; vcc $end
$var wire 1 < unknown $end
$var wire 1 = devoe $end
$var wire 1 > devclrn $end
$var wire 1 ? devpor $end
$var wire 1 @ ww_devoe $end
$var wire 1 A ww_devclrn $end
$var wire 1 B ww_devpor $end
$var wire 1 C ww_clk $end
$var wire 1 D ww_start $end
$var wire 1 E ww_charge $end
$var wire 1 F ww_reset $end
$var wire 1 G ww_cent [3] $end
$var wire 1 H ww_cent [2] $end
$var wire 1 I ww_cent [1] $end
$var wire 1 J ww_cent [0] $end
$var wire 1 K ww_dec [3] $end
$var wire 1 L ww_dec [2] $end
$var wire 1 M ww_dec [1] $end
$var wire 1 N ww_dec [0] $end
$var wire 1 O ww_uni [3] $end
$var wire 1 P ww_uni [2] $end
$var wire 1 Q ww_uni [1] $end
$var wire 1 R ww_uni [0] $end
$var wire 1 S ww_valid $end
$var wire 1 T ww_binary [7] $end
$var wire 1 U ww_binary [6] $end
$var wire 1 V ww_binary [5] $end
$var wire 1 W ww_binary [4] $end
$var wire 1 X ww_binary [3] $end
$var wire 1 Y ww_binary [2] $end
$var wire 1 Z ww_binary [1] $end
$var wire 1 [ ww_binary [0] $end
$var wire 1 \ \reset~inputclkctrl_INCLK_bus\ [3] $end
$var wire 1 ] \reset~inputclkctrl_INCLK_bus\ [2] $end
$var wire 1 ^ \reset~inputclkctrl_INCLK_bus\ [1] $end
$var wire 1 _ \reset~inputclkctrl_INCLK_bus\ [0] $end
$var wire 1 ` \clk~inputclkctrl_INCLK_bus\ [3] $end
$var wire 1 a \clk~inputclkctrl_INCLK_bus\ [2] $end
$var wire 1 b \clk~inputclkctrl_INCLK_bus\ [1] $end
$var wire 1 c \clk~inputclkctrl_INCLK_bus\ [0] $end
$var wire 1 d \valid~output_o\ $end
$var wire 1 e \binary[0]~output_o\ $end
$var wire 1 f \binary[1]~output_o\ $end
$var wire 1 g \binary[2]~output_o\ $end
$var wire 1 h \binary[3]~output_o\ $end
$var wire 1 i \binary[4]~output_o\ $end
$var wire 1 j \binary[5]~output_o\ $end
$var wire 1 k \binary[6]~output_o\ $end
$var wire 1 l \binary[7]~output_o\ $end
$var wire 1 m \clk~input_o\ $end
$var wire 1 n \clk~inputclkctrl_outclk\ $end
$var wire 1 o \start~input_o\ $end
$var wire 1 p \i[0]~2_combout\ $end
$var wire 1 q \reset~input_o\ $end
$var wire 1 r \reset~inputclkctrl_outclk\ $end
$var wire 1 s \i[2]~3_combout\ $end
$var wire 1 t \state.rest~q\ $end
$var wire 1 u \charge~input_o\ $end
$var wire 1 v \state.idle~0_combout\ $end
$var wire 1 w \state.idle~q\ $end
$var wire 1 x \Selector0~0_combout\ $end
$var wire 1 y \state.shift~q\ $end
$var wire 1 z \state.check_sum~feeder_combout\ $end
$var wire 1 { \state.check_sum~q\ $end
$var wire 1 | \i[2]~0_combout\ $end
$var wire 1 } \i[1]~1_combout\ $end
$var wire 1 ~ \Selector1~0_combout\ $end
$var wire 1 !! \state.fin~0_combout\ $end
$var wire 1 "! \state.fin~q\ $end
$var wire 1 #! \process_0~0_combout\ $end
$var wire 1 $! \cent_reg[0]~0_combout\ $end
$var wire 1 %! \uni_reg[0]~3_combout\ $end
$var wire 1 &! \Add1~1_combout\ $end
$var wire 1 '! \dec[0]~input_o\ $end
$var wire 1 (! \dec[1]~input_o\ $end
$var wire 1 )! \dec[3]~input_o\ $end
$var wire 1 *! \cent[0]~input_o\ $end
$var wire 1 +! \cent[2]~input_o\ $end
$var wire 1 ,! \cent[3]~input_o\ $end
$var wire 1 -! \cent_reg~4_combout\ $end
$var wire 1 .! \cent_reg~3_combout\ $end
$var wire 1 /! \cent[1]~input_o\ $end
$var wire 1 0! \cent_reg~2_combout\ $end
$var wire 1 1! \cent_reg~1_combout\ $end
$var wire 1 2! \dec_reg[3]~4_combout\ $end
$var wire 1 3! \Add2~1_combout\ $end
$var wire 1 4! \dec_reg[3]~5_combout\ $end
$var wire 1 5! \dec_reg[3]~6_combout\ $end
$var wire 1 6! \LessThan2~0_combout\ $end
$var wire 1 7! \dec_reg[0]~3_combout\ $end
$var wire 1 8! \dec_reg[0]~2_combout\ $end
$var wire 1 9! \dec_reg[2]~7_combout\ $end
$var wire 1 :! \dec[2]~input_o\ $end
$var wire 1 ;! \dec_reg[2]~8_combout\ $end
$var wire 1 <! \dec_reg[2]~9_combout\ $end
$var wire 1 =! \dec_reg[1]~1_combout\ $end
$var wire 1 >! \Add2~0_combout\ $end
$var wire 1 ?! \dec_reg[0]~0_combout\ $end
$var wire 1 @! \dec_reg[0]~_wirecell_combout\ $end
$var wire 1 A! \uni[3]~input_o\ $end
$var wire 1 B! \uni_reg[3]~4_combout\ $end
$var wire 1 C! \uni_reg[3]~5_combout\ $end
$var wire 1 D! \uni_reg[3]~6_combout\ $end
$var wire 1 E! \LessThan1~0_combout\ $end
$var wire 1 F! \uni_reg[0]~2_combout\ $end
$var wire 1 G! \uni_reg[2]~7_combout\ $end
$var wire 1 H! \uni[2]~input_o\ $end
$var wire 1 I! \uni_reg[2]~8_combout\ $end
$var wire 1 J! \uni_reg[2]~9_combout\ $end
$var wire 1 K! \uni[1]~input_o\ $end
$var wire 1 L! \uni_reg[1]~1_combout\ $end
$var wire 1 M! \Add1~0_combout\ $end
$var wire 1 N! \uni[0]~input_o\ $end
$var wire 1 O! \uni_reg[0]~0_combout\ $end
$var wire 1 P! \uni_reg[0]~_wirecell_combout\ $end
$var wire 1 Q! \Selector2~0_combout\ $end
$var wire 1 R! \binary_reg[0]~0_combout\ $end
$var wire 1 S! \Selector3~0_combout\ $end
$var wire 1 T! \Selector4~0_combout\ $end
$var wire 1 U! \Selector5~0_combout\ $end
$var wire 1 V! \Selector6~0_combout\ $end
$var wire 1 W! \Selector7~0_combout\ $end
$var wire 1 X! \Selector8~0_combout\ $end
$var wire 1 Y! \Selector9~0_combout\ $end
$var wire 1 Z! uni_reg [3] $end
$var wire 1 [! uni_reg [2] $end
$var wire 1 \! uni_reg [1] $end
$var wire 1 ]! uni_reg [0] $end
$var wire 1 ^! dec_reg [3] $end
$var wire 1 _! dec_reg [2] $end
$var wire 1 `! dec_reg [1] $end
$var wire 1 a! dec_reg [0] $end
$var wire 1 b! cent_reg [3] $end
$var wire 1 c! cent_reg [2] $end
$var wire 1 d! cent_reg [1] $end
$var wire 1 e! cent_reg [0] $end
$var wire 1 f! binary_reg [7] $end
$var wire 1 g! binary_reg [6] $end
$var wire 1 h! binary_reg [5] $end
$var wire 1 i! binary_reg [4] $end
$var wire 1 j! binary_reg [3] $end
$var wire 1 k! binary_reg [2] $end
$var wire 1 l! binary_reg [1] $end
$var wire 1 m! binary_reg [0] $end
$var wire 1 n! i [2] $end
$var wire 1 o! i [1] $end
$var wire 1 p! i [0] $end
$upscope $end
$upscope $end
$enddefinitions $end
#0
$dumpvars
1-
0.
13
14
09
0:
1;
x<
1=
1>
1?
1@
1A
1B
0C
1D
1E
1F
0S
0d
0e
0f
0g
0h
0i
0j
0k
0l
0m
0n
1o
0p
1q
1r
0s
0t
1u
0v
0w
0x
0y
0z
0{
0|
0}
0~
0!!
0"!
1#!
0$!
0%!
0&!
1'!
0(!
0)!
1*!
0+!
0,!
0-!
0.!
0/!
00!
11!
02!
03!
04!
05!
06!
07!
08!
09!
0:!
0;!
0<!
0=!
0>!
1?!
1@!
0A!
0B!
0C!
0D!
0E!
0F!
0G!
1H!
1I!
0J!
1K!
1L!
0M!
1N!
1O!
1P!
0Q!
0R!
0S!
0T!
0U!
0V!
0W!
0X!
0Y!
0!
0"
0#
0$
0%
0&
0'
0(
0T
0U
0V
0W
0X
0Y
0Z
0[
0)
0*
0+
1,
0/
00
01
12
05
16
17
18
0G
0H
0I
1J
0K
0L
0M
1N
0O
1P
1Q
1R
0Z!
0[!
0\!
0]!
0^!
0_!
0`!
0a!
0b!
0c!
0d!
0e!
0f!
0g!
0h!
0i!
0j!
0k!
0l!
0m!
0n!
0o!
0p!
1`
1a
1b
0c
1\
1]
1^
1_
$end
#5000
1.
1C
1m
1c
1n
#10000
0.
03
0C
0F
0q
0m
0_
0c
0n
0r
#15000
1.
1C
1m
1c
1n
#20000
0.
0C
0m
0c
0n
#25000
1.
1C
1m
1c
1n
#30000
0.
13
0-
0C
1F
0E
0u
1q
0m
1_
0c
0#!
1$!
1%!
17!
0n
1r
1J!
#35000
1.
1C
1m
1c
1n
1e!
1a!
1[!
1\!
1]!
0P!
1&!
1E!
1>!
0@!
#40000
0.
04
0C
0D
0o
0m
0c
1#!
0$!
0%!
07!
0n
#45000
1.
1C
1m
1c
1n
#50000
0.
1-
0C
1E
1u
0m
0c
1v
1x
1R!
0n
#55000
1.
1C
1m
1c
1n
1w
1y
1z
1$!
01!
12!
0?!
1B!
0I!
1Q!
0x
1C!
14!
1%!
17!
0J!
15!
1D!
#60000
0.
14
0C
1D
1o
0m
0c
0n
#65000
1.
1C
1m
1c
1n
0y
1{
0e!
1^!
0a!
1Z!
0[!
1f!
0&!
0>!
1@!
13!
16!
1p
1s
0z
0$!
11!
02!
1?!
0B!
1I!
0Q!
0R!
1J!
0%!
07!
04!
0C!
1l
0J!
1T
1!
#70000
0.
0C
0m
0c
0n
#75000
1.
1C
1m
1c
1n
1p!
1t
0{
1x
1%!
17!
18!
1C!
1F!
0s
0I!
19!
05!
1J!
1<!
0J!
#80000
0.
0C
0m
0c
0n
#85000
1.
1C
1m
1c
1n
0t
1y
0^!
1_!
1a!
0\!
0]!
1P!
1&!
1G!
1>!
0@!
09!
1z
1$!
01!
1=!
0?!
1B!
0L!
0O!
1R!
1S!
0x
0%!
07!
08!
0C!
0F!
0G!
1I!
1%!
17!
1C!
0<!
1J!
#90000
0.
0C
0m
0c
0n
#95000
1.
1C
1m
1c
1n
0y
1{
0_!
1`!
0a!
1[!
0f!
1g!
0&!
1@!
03!
06!
0p
1s
1}
0z
0$!
11!
0=!
1?!
0B!
1L!
1O!
0R!
0S!
0%!
07!
0C!
1k
0l
1U
0T
1"
0!
#100000
0.
0C
0m
0c
0n
#105000
1.
1C
1m
1c
1n
0p!
1t
0{
1o!
1x
1%!
1C!
1F!
0s
0I!
0J!
#110000
0.
0C
0m
0c
0n
#115000
1.
1C
1m
1c
1n
0t
1y
0[!
1]!
1M!
0P!
1&!
1G!
1z
1$!
01!
0L!
0O!
1Q!
1R!
1T!
0x
0%!
0C!
0F!
0G!
1I!
1%!
17!
0D!
1J!
#120000
0.
0C
0m
0c
0n
#125000
1.
1C
1m
1c
1n
0y
1{
0`!
1a!
0Z!
1[!
0]!
1f!
0g!
1h!
0M!
1P!
0E!
0@!
1p
1s
0z
0$!
11!
1L!
1O!
0Q!
0R!
0T!
07!
0%!
1j
0k
1l
1V
0U
1T
1#
0"
1!
#130000
0.
0C
0m
0c
0n
#135000
1.
1C
1m
1c
1n
1p!
1t
0{
1x
0s
#140000
0.
0C
0m
0c
0n
#145000
1.
1C
1m
1c
1n
0t
1y
1z
1$!
01!
0?!
1B!
0I!
0O!
1R!
1S!
1U!
0x
1C!
1%!
17!
0J!
1D!
#150000
0.
0C
0m
0c
0n
#155000
1.
1C
1m
1c
1n
0y
1{
0a!
1Z!
0[!
1\!
0f!
1g!
0h!
1i!
1M!
1E!
0>!
1@!
0p
1s
1|
0}
0z
0$!
11!
1?!
0B!
1I!
1O!
0R!
0S!
0U!
1J!
07!
0%!
0C!
1i
0j
1k
0l
0J!
1W
0V
1U
0T
1$
0#
1"
0!
#160000
0.
0C
0m
0c
0n
#165000
1.
1C
1m
1c
1n
0p!
1t
0{
1n!
0o!
1x
1%!
1F!
0s
1G!
0I!
0D!
1J!
#170000
0.
0C
0m
0c
0n
#175000
1.
1C
1m
1c
1n
0t
1y
0Z!
1[!
1]!
0M!
0P!
1z
1$!
01!
0?!
1Q!
1R!
1T!
1V!
0x
0%!
0F!
0G!
1%!
17!
0J!
#180000
0.
0C
0m
0c
0n
#185000
1.
1C
1m
1c
1n
0y
1{
0[!
1f!
0g!
1h!
0i!
1j!
0E!
1p
1s
0z
0$!
11!
1?!
1I!
0Q!
0R!
0T!
0V!
1J!
07!
0%!
1h
0i
1j
0k
1l
0J!
1X
0W
1V
0U
1T
1%
0$
1#
0"
1!
#190000
0.
0C
0m
0c
0n
#195000
1.
1C
1m
1c
1n
1p!
1t
0{
1x
0s
#200000
0.
0C
0m
0c
0n
#205000
1.
1C
1m
1c
1n
0t
1y
1z
1$!
01!
0?!
0I!
0L!
1Q!
1R!
1S!
1U!
1W!
0x
1%!
17!
#210000
0.
0C
0m
0c
0n
#215000
1.
1C
1m
1c
1n
0y
1{
0\!
1g!
0h!
1i!
0j!
1k!
0&!
1M!
0p
1s
1}
0z
0$!
11!
1?!
1I!
1L!
0Q!
0R!
0S!
0U!
0W!
1J!
0%!
07!
1g
0h
1i
0j
1k
0J!
1Y
0X
1W
0V
1U
1&
0%
1$
0#
1"
#220000
0.
0C
0m
0c
0n
#225000
1.
1C
1m
1c
1n
0p!
1t
0{
1o!
1x
0s
#230000
0.
0C
0m
0c
0n
#235000
1.
1C
1m
1c
1n
0t
1y
1z
1$!
01!
0?!
0I!
0L!
0O!
1Q!
1R!
1S!
1T!
1V!
1X!
0x
1%!
17!
#240000
0.
0C
0m
0c
0n
#245000
1.
1C
1m
1c
1n
0y
1{
0]!
1h!
0i!
1j!
0k!
1l!
0M!
1P!
1p
1s
0z
0$!
11!
1?!
1I!
1L!
1O!
0Q!
0R!
0S!
0T!
0V!
0X!
1J!
0%!
07!
1f
0g
1h
0i
1j
0J!
1Z
0Y
1X
0W
1V
1'
0&
1%
0$
1#
#250000
0.
0C
0m
0c
0n
#255000
1.
1C
1m
1c
1n
1p!
1t
0{
1x
0s
#260000
0.
0C
0m
0c
0n
#265000
1.
1C
1m
1c
1n
0t
1y
1z
1$!
01!
0?!
0I!
0L!
0O!
1R!
1S!
1T!
1U!
1W!
1Y!
0x
1%!
17!
#270000
0.
0C
0m
0c
0n
#275000
1.
1C
1m
1c
1n
0y
1{
0f!
1i!
0j!
1k!
0l!
1m!
1~
0z
0$!
11!
1?!
1I!
1L!
1O!
0R!
0S!
0T!
0U!
0W!
0Y!
1J!
0%!
07!
1!!
1e
0f
1g
0h
1i
0l
0J!
1[
0Z
1Y
0X
1W
0T
1(
0'
1&
0%
1$
0!
#280000
0.
0C
0m
0c
0n
#285000
1.
1C
1m
1c
1n
0{
1"!
0~
1d
1S
19
#290000
0.
03
1+
0,
10
07
0C
0F
0J
1I
1L
0Q
0K!
1:!
1/!
0*!
0q
0m
0_
0c
01!
10!
1;!
0L!
0n
0r
0p!
0w
0n!
0o!
0"!
0g!
0h!
0i!
0k!
0m!
0!!
0v
0p
0|
0}
0e
0g
0i
0j
0k
0d
0[
0Y
0W
0V
0U
0S
0(
0&
0$
0#
0"
09
#295000
1.
1C
1m
1c
1n
#300000
0.
0-
0C
0E
0u
0m
0c
0#!
1$!
1%!
17!
0n
1<!
1J!
#305000
1.
1C
1m
1c
1n
#310000
0.
13
0C
1F
1q
0m
1_
0c
0n
1r
#315000
1.
1C
1m
1c
1n
1d!
1_!
1a!
1[!
1]!
1M!
0P!
1&!
1E!
1>!
0@!
13!
16!
#320000
0.
0C
0m
0c
0n
#325000
1.
1C
1m
1c
1n
#330000
0.
1-
04
0C
1E
0D
0o
1u
0m
0c
1v
1x
1#!
0$!
1R!
0%!
07!
0n
#335000
1.
1C
1m
1c
1n
1w
1y
1z
1$!
00!
11!
0;!
1=!
0?!
1B!
0I!
1L!
0O!
1Q!
0x
1C!
1%!
17!
0<!
0J!
1D!
#340000
0.
0C
0m
0c
0n
#345000
1.
1C
1m
1c
1n
0y
1{
0d!
1e!
0_!
1`!
0a!
1Z!
0[!
1\!
0]!
1f!
1P!
1@!
03!
06!
1p
1s
0z
0$!
10!
01!
1;!
0=!
1?!
0B!
1I!
0L!
1O!
0Q!
0R!
1J!
0C!
1<!
0%!
07!
1l
0<!
0J!
1T
1!
#350000
0.
0C
0m
0c
0n
#355000
1.
1C
1m
1c
1n
1p!
1t
0{
1x
1%!
1F!
0s
1G!
0I!
0D!
1J!
#360000
0.
14
0C
1D
1o
0m
0c
0n
#365000
1.
1C
1m
1c
1n
0t
1y
0Z!
1[!
1]!
0M!
0P!
1z
1$!
00!
12!
0;!
1L!
1Q!
1R!
1S!
0x
0%!
0F!
0G!
14!
1%!
17!
15!
0J!
#370000
0.
0C
0m
0c
0n
#375000
1.
1C
1m
1c
1n
0y
1{
0e!
1^!
0`!
1a!
0[!
1g!
0E!
0@!
13!
16!
0p
1s
1}
0z
0$!
10!
02!
1;!
1I!
0L!
0Q!
0R!
0S!
1J!
1<!
07!
04!
0%!
1k
0J!
0<!
1U
1"
#380000
0.
0C
0m
0c
0n
#385000
1.
1C
1m
1c
1n
0p!
1t
0{
1o!
1x
17!
18!
0s
19!
0;!
05!
1<!
#390000
0.
0C
0m
0c
0n
#395000
1.
1C
1m
1c
1n
0t
1y
0^!
1_!
1`!
0a!
1@!
09!
1z
1$!
00!
1=!
0I!
1Q!
1R!
1S!
1T!
0x
07!
08!
1%!
17!
0<!
#400000
0.
0C
0m
0c
0n
#405000
1.
1C
1m
1c
1n
0y
1{
0_!
1a!
0\!
1h!
0&!
1M!
0>!
0@!
06!
1p
1s
0z
0$!
10!
1;!
0=!
1I!
0Q!
0R!
0S!
0T!
1J!
1<!
0%!
07!
1j
0<!
0J!
1V
1#
#410000
0.
0C
0m
0c
0n
#415000
1.
1C
1m
1c
1n
1p!
1t
0{
1x
0s
#420000
0.
0C
0m
0c
0n
#425000
1.
1C
1m
1c
1n
0t
1y
1z
1$!
00!
0;!
1B!
0I!
0O!
1Q!
1R!
1S!
1T!
1U!
0x
1C!
1%!
17!
1D!
#430000
0.
0C
0m
0c
0n
#435000
1.
1C
1m
1c
1n
0y
1{
0`!
1Z!
0]!
1i!
0M!
1P!
1&!
1E!
03!
1>!
0p
1s
1|
0}
0z
0$!
10!
1;!
0B!
1I!
1O!
0Q!
0R!
0S!
0T!
0U!
1J!
1<!
07!
0%!
0C!
1i
0J!
0<!
1W
1$
#440000
0.
0C
0m
0c
0n
#445000
1.
1C
1m
1c
1n
0p!
1t
0{
1n!
0o!
1x
1%!
1F!
0s
1G!
0I!
0D!
1J!
#450000
0.
0C
0m
0c
0n
#455000
1.
1C
1m
1c
1n
0t
1y
0Z!
1[!
1]!
1M!
0P!
0G!
1z
1$!
00!
0;!
0?!
1B!
1L!
0O!
1Q!
1R!
1S!
1T!
1U!
1V!
0x
0%!
0F!
1C!
1%!
17!
0J!
1D!
#460000
0.
0C
0m
0c
0n
#465000
1.
1C
1m
1c
1n
0y
1{
0a!
1Z!
0[!
1\!
0]!
1j!
1P!
0>!
1@!
1p
1s
0z
0$!
10!
1;!
1?!
0B!
1I!
0L!
1O!
0Q!
0R!
0S!
0T!
0U!
0V!
1J!
0C!
1<!
0%!
07!
1h
0<!
0J!
1X
1%
#470000
0.
0C
0m
0c
0n
#475000
1.
1C
1m
1c
1n
1p!
1t
0{
1x
1%!
1F!
0s
1G!
0I!
0D!
1J!
#480000
0.
0+
1,
00
17
0C
1J
0I
0L
1Q
1K!
0:!
0/!
1*!
0m
0c
11!
00!
0;!
1L!
0n
#485000
1.
1C
1m
1c
1n
0t
1y
0Z!
1[!
1]!
0M!
0P!
1z
1$!
01!
0?!
1Q!
1R!
1S!
1T!
1U!
1V!
1W!
0x
0%!
0F!
0G!
1%!
17!
0J!
#490000
0.
0C
0m
0c
0n
#495000
1.
1C
1m
1c
1n
0y
1{
0[!
1k!
0E!
0p
1s
1}
0z
0$!
11!
1?!
1I!
0Q!
0R!
0S!
0T!
0U!
0V!
0W!
1J!
07!
0%!
1g
0J!
1Y
1&
#500000
0.
0C
0m
0c
0n
#505000
1.
1C
1m
1c
1n
0p!
1t
0{
1o!
1x
0s
#510000
0.
0C
0m
0c
0n
#515000
1.
1C
1m
1c
1n
0t
1y
1z
1$!
01!
0?!
0I!
0L!
1Q!
1R!
1S!
1T!
1U!
1V!
1W!
1X!
0x
1%!
17!
#520000
0.
0C
0m
0c
0n
#525000
1.
1C
1m
1c
1n
0y
1{
0\!
1l!
0&!
1M!
1p
1s
0z
0$!
11!
1?!
1I!
1L!
0Q!
0R!
0S!
0T!
0U!
0V!
0W!
0X!
1J!
0%!
07!
1f
0J!
1Z
1'
#530000
0.
0C
0m
0c
0n
#535000
1.
1C
1m
1c
1n
1p!
1t
0{
1x
0s
#540000
0.
0C
0m
0c
0n
#545000
1.
1C
1m
1c
1n
0t
1y
1z
1$!
01!
0?!
0I!
0L!
0O!
1Q!
1R!
1S!
1T!
1U!
1V!
1W!
1X!
1Y!
0x
1%!
17!
#550000
0.
0C
0m
0c
0n
#555000
1.
1C
1m
1c
1n
0y
1{
0]!
1m!
0M!
1P!
1~
0z
0$!
11!
1?!
1I!
1L!
1O!
0Q!
0R!
0S!
0T!
0U!
0V!
0W!
0X!
0Y!
1J!
0%!
07!
1!!
1e
0J!
1[
1(
#560000
0.
0C
0m
0c
0n
#565000
1.
1C
1m
1c
1n
0{
1"!
0~
1d
1S
19
#570000
0.
0C
0m
0c
0n
#575000
1.
1C
1m
1c
1n
#580000
0.
0C
0m
0c
0n
#585000
1.
1C
1m
1c
1n
#590000
0.
0C
0m
0c
0n
#595000
1.
1C
1m
1c
1n
#600000
0.
0C
0m
0c
0n
#605000
1.
1C
1m
1c
1n
#610000
0.
0C
0m
0c
0n
#615000
1.
1C
1m
1c
1n
#620000
0.
0C
0m
0c
0n
#625000
1.
1C
1m
1c
1n
#630000
0.
0C
0m
0c
0n
#635000
1.
1C
1m
1c
1n
#640000
0.
0C
0m
0c
0n
#645000
1.
1C
1m
1c
1n
#650000
0.
0C
0m
0c
0n
#655000
1.
1C
1m
1c
1n
#660000
0.
0C
0m
0c
0n
#665000
1.
1C
1m
1c
1n
#670000
0.
0C
0m
0c
0n
#675000
1.
1C
1m
1c
1n
#680000
0.
0C
0m
0c
0n
#685000
1.
1C
1m
1c
1n
#690000
0.
0C
0m
0c
0n
#695000
1.
1C
1m
1c
1n
#700000
0.
0C
0m
0c
0n
#705000
1.
1C
1m
1c
1n
#710000
0.
0C
0m
0c
0n
#715000
1.
1C
1m
1c
1n
#720000
0.
0C
0m
0c
0n
#725000
1.
1C
1m
1c
1n
#730000
0.
0C
0m
0c
0n
#735000
1.
1C
1m
1c
1n
#740000
0.
0C
0m
0c
0n
#745000
1.
1C
1m
1c
1n
#750000
0.
0C
0m
0c
0n
#755000
1.
1C
1m
1c
1n
#760000
0.
0C
0m
0c
0n
#765000
1.
1C
1m
1c
1n
#770000
0.
0C
0m
0c
0n
#775000
1.
1C
1m
1c
1n
#780000
0.
0C
0m
0c
0n
#785000
1.
1C
1m
1c
1n
#790000
0.
0C
0m
0c
0n
#795000
1.
1C
1m
1c
1n
#800000
0.
0C
0m
0c
0n
#805000
1.
1C
1m
1c
1n
#810000
0.
0C
0m
0c
0n
#815000
1.
1C
1m
1c
1n
#820000
0.
0C
0m
0c
0n
#825000
1.
1C
1m
1c
1n
#830000
0.
0C
0m
0c
0n
#835000
1.
1C
1m
1c
1n
#840000
0.
0C
0m
0c
0n
#845000
1.
1C
1m
1c
1n
#850000
0.
0C
0m
0c
0n
#855000
1.
1C
1m
1c
1n
#860000
0.
0C
0m
0c
0n
#865000
1.
1C
1m
1c
1n
#870000
0.
0C
0m
0c
0n
#875000
1.
1C
1m
1c
1n
#880000
0.
0C
0m
0c
0n
#885000
1.
1C
1m
1c
1n
#890000
0.
0C
0m
0c
0n
#895000
1.
1C
1m
1c
1n
#900000
0.
0C
0m
0c
0n
#905000
1.
1C
1m
1c
1n
#910000
0.
0C
0m
0c
0n
#915000
1.
1C
1m
1c
1n
#920000
0.
0C
0m
0c
0n
#925000
1.
1C
1m
1c
1n
#930000
0.
0C
0m
0c
0n
#935000
1.
1C
1m
1c
1n
#940000
0.
0C
0m
0c
0n
#945000
1.
1C
1m
1c
1n
#950000
0.
0C
0m
0c
0n
#955000
1.
1C
1m
1c
1n
#960000
0.
0C
0m
0c
0n
#965000
1.
1C
1m
1c
1n
#970000
0.
0C
0m
0c
0n
#975000
1.
1C
1m
1c
1n
#980000
0.
0C
0m
0c
0n
#985000
1.
1C
1m
1c
1n
#990000
0.
0C
0m
0c
0n
#995000
1.
1C
1m
1c
1n
