FUNCIONAN/Proyect_3_FSM/simulation/qsim/Proyect_3_FSM.msim.vcd
$comment
	File created using the following command:
		vcd file Proyect_3_FSM.msim.vcd -direction
$end
$date
	Sun Jun 16 13:24:20 2024
$end
$version
	Questa Intel Starter FPGA Edition Version 2023.3
$end
$timescale
	1ps
$end

$scope module proyect_3_fsm_vhd_vec_tst $end
$var wire 1 ! cent [3] $end
$var wire 1 " cent [2] $end
$var wire 1 # cent [1] $end
$var wire 1 $ cent [0] $end
$var wire 1 % charge $end
$var wire 1 & clk $end
$var wire 1 ' dec [3] $end
$var wire 1 ( dec [2] $end
$var wire 1 ) dec [1] $end
$var wire 1 * dec [0] $end
$var wire 1 + entrada [7] $end
$var wire 1 , entrada [6] $end
$var wire 1 - entrada [5] $end
$var wire 1 . entrada [4] $end
$var wire 1 / entrada [3] $end
$var wire 1 0 entrada [2] $end
$var wire 1 1 entrada [1] $end
$var wire 1 2 entrada [0] $end
$var wire 1 3 reset $end
$var wire 1 4 start $end
$var wire 1 5 uni [3] $end
$var wire 1 6 uni [2] $end
$var wire 1 7 uni [1] $end
$var wire 1 8 uni [0] $end
$var wire 1 9 valid $end

$scope module i1 $end
$var wire 1 : gnd $end
$var wire 1 ; vcc $end
$var wire 1 < unknown $end
$var wire 1 = devoe $end
$var wire 1 > devclrn $end
$var wire 1 ? devpor $end
$var wire 1 @ ww_devoe $end
$var wire 1 A ww_devclrn $end
$var wire 1 B ww_devpor $end
$var wire 1 C ww_clk $end
$var wire 1 D ww_start $end
$var wire 1 E ww_charge $end
$var wire 1 F ww_entrada [7] $end
$var wire 1 G ww_entrada [6] $end
$var wire 1 H ww_entrada [5] $end
$var wire 1 I ww_entrada [4] $end
$var wire 1 J ww_entrada [3] $end
$var wire 1 K ww_entrada [2] $end
$var wire 1 L ww_entrada [1] $end
$var wire 1 M ww_entrada [0] $end
$var wire 1 N ww_reset $end
$var wire 1 O ww_valid $end
$var wire 1 P ww_uni [3] $end
$var wire 1 Q ww_uni [2] $end
$var wire 1 R ww_uni [1] $end
$var wire 1 S ww_uni [0] $end
$var wire 1 T ww_dec [3] $end
$var wire 1 U ww_dec [2] $end
$var wire 1 V ww_dec [1] $end
$var wire 1 W ww_dec [0] $end
$var wire 1 X ww_cent [3] $end
$var wire 1 Y ww_cent [2] $end
$var wire 1 Z ww_cent [1] $end
$var wire 1 [ ww_cent [0] $end
$var wire 1 \ \reset~inputclkctrl_INCLK_bus\ [3] $end
$var wire 1 ] \reset~inputclkctrl_INCLK_bus\ [2] $end
$var wire 1 ^ \reset~inputclkctrl_INCLK_bus\ [1] $end
$var wire 1 _ \reset~inputclkctrl_INCLK_bus\ [0] $end
$var wire 1 ` \clk~inputclkctrl_INCLK_bus\ [3] $end
$var wire 1 a \clk~inputclkctrl_INCLK_bus\ [2] $end
$var wire 1 b \clk~inputclkctrl_INCLK_bus\ [1] $end
$var wire 1 c \clk~inputclkctrl_INCLK_bus\ [0] $end
$var wire 1 d \valid~output_o\ $end
$var wire 1 e \uni[0]~output_o\ $end
$var wire 1 f \uni[1]~output_o\ $end
$var wire 1 g \uni[2]~output_o\ $end
$var wire 1 h \uni[3]~output_o\ $end
$var wire 1 i \dec[0]~output_o\ $end
$var wire 1 j \dec[1]~output_o\ $end
$var wire 1 k \dec[2]~output_o\ $end
$var wire 1 l \dec[3]~output_o\ $end
$var wire 1 m \cent[0]~output_o\ $end
$var wire 1 n \cent[1]~output_o\ $end
$var wire 1 o \cent[2]~output_o\ $end
$var wire 1 p \cent[3]~output_o\ $end
$var wire 1 q \clk~input_o\ $end
$var wire 1 r \clk~inputclkctrl_outclk\ $end
$var wire 1 s \start~input_o\ $end
$var wire 1 t \state.idle~0_combout\ $end
$var wire 1 u \reset~input_o\ $end
$var wire 1 v \reset~inputclkctrl_outclk\ $end
$var wire 1 w \state.idle~q\ $end
$var wire 1 x \i[3]~3_combout\ $end
$var wire 1 y \state.sum~q\ $end
$var wire 1 z \Selector0~0_combout\ $end
$var wire 1 { \state.shift~q\ $end
$var wire 1 | \state.check_sum~feeder_combout\ $end
$var wire 1 } \state.check_sum~q\ $end
$var wire 1 ~ \i[1]~1_combout\ $end
$var wire 1 !! \i[2]~0_combout\ $end
$var wire 1 "! \i[0]~2_combout\ $end
$var wire 1 #! \Selector1~0_combout\ $end
$var wire 1 $! \state.fin~0_combout\ $end
$var wire 1 %! \state.fin~q\ $end
$var wire 1 &! \entrada[7]~input_o\ $end
$var wire 1 '! \entrada[1]~input_o\ $end
$var wire 1 (! \charge~input_o\ $end
$var wire 1 )! \entrada[0]~input_o\ $end
$var wire 1 *! \input_reg~8_combout\ $end
$var wire 1 +! \input_reg~7_combout\ $end
$var wire 1 ,! \input_reg[7]~1_combout\ $end
$var wire 1 -! \entrada[2]~input_o\ $end
$var wire 1 .! \input_reg~6_combout\ $end
$var wire 1 /! \entrada[3]~input_o\ $end
$var wire 1 0! \input_reg~5_combout\ $end
$var wire 1 1! \entrada[4]~input_o\ $end
$var wire 1 2! \input_reg~4_combout\ $end
$var wire 1 3! \entrada[5]~input_o\ $end
$var wire 1 4! \input_reg~3_combout\ $end
$var wire 1 5! \entrada[6]~input_o\ $end
$var wire 1 6! \input_reg~2_combout\ $end
$var wire 1 7! \input_reg~0_combout\ $end
$var wire 1 8! \uni_reg[0]~0_combout\ $end
$var wire 1 9! \Add1~0_combout\ $end
$var wire 1 :! \uni_reg[1]~1_combout\ $end
$var wire 1 ;! \Add1~1_combout\ $end
$var wire 1 <! \uni_reg[2]~2_combout\ $end
$var wire 1 =! \Add1~2_combout\ $end
$var wire 1 >! \uni_reg[3]~3_combout\ $end
$var wire 1 ?! \uni_reg[0]~4_combout\ $end
$var wire 1 @! \uni_reg[0]~5_combout\ $end
$var wire 1 A! \dec_reg[0]~0_combout\ $end
$var wire 1 B! \Add2~0_combout\ $end
$var wire 1 C! \dec_reg[1]~1_combout\ $end
$var wire 1 D! \Add2~1_combout\ $end
$var wire 1 E! \dec_reg[2]~2_combout\ $end
$var wire 1 F! \Add2~2_combout\ $end
$var wire 1 G! \dec_reg[3]~3_combout\ $end
$var wire 1 H! \dec_reg[0]~4_combout\ $end
$var wire 1 I! \dec_reg[0]~5_combout\ $end
$var wire 1 J! \Cent_reg[0]~feeder_combout\ $end
$var wire 1 K! \Cent_reg[1]~feeder_combout\ $end
$var wire 1 L! \Cent_reg[2]~feeder_combout\ $end
$var wire 1 M! \Cent_reg[3]~feeder_combout\ $end
$var wire 1 N! uni_reg [3] $end
$var wire 1 O! uni_reg [2] $end
$var wire 1 P! uni_reg [1] $end
$var wire 1 Q! uni_reg [0] $end
$var wire 1 R! dec_reg [3] $end
$var wire 1 S! dec_reg [2] $end
$var wire 1 T! dec_reg [1] $end
$var wire 1 U! dec_reg [0] $end
$var wire 1 V! input_reg [7] $end
$var wire 1 W! input_reg [6] $end
$var wire 1 X! input_reg [5] $end
$var wire 1 Y! input_reg [4] $end
$var wire 1 Z! input_reg [3] $end
$var wire 1 [! input_reg [2] $end
$var wire 1 \! input_reg [1] $end
$var wire 1 ]! input_reg [0] $end
$var wire 1 ^! Cent_reg [3] $end
$var wire 1 _! Cent_reg [2] $end
$var wire 1 `! Cent_reg [1] $end
$var wire 1 a! Cent_reg [0] $end
$var wire 1 b! i [3] $end
$var wire 1 c! i [2] $end
$var wire 1 d! i [1] $end
$var wire 1 e! i [0] $end
$upscope $end
$upscope $end
$enddefinitions $end
#0
$dumpvars
1%
0&
03
14
09
0:
1;
x<
1=
1>
1?
1@
1A
1B
0C
1D
1E
0N
0O
0d
0e
0f
0g
0h
0i
0j
0k
0l
0m
0n
0o
0p
0q
0r
1s
0t
0u
0v
0w
0x
0y
0z
0{
0|
0}
0~
0!!
0"!
0#!
0$!
0%!
1&!
1'!
1(!
1)!
0*!
1+!
0,!
0-!
0.!
1/!
10!
11!
12!
03!
04!
15!
16!
17!
08!
09!
0:!
0;!
0<!
0=!
0>!
1?!
1@!
0A!
0B!
0C!
0D!
0E!
0F!
0G!
0H!
1I!
0J!
0K!
0L!
0M!
1+
1,
0-
1.
1/
00
11
12
1F
1G
0H
1I
1J
0K
1L
1M
0N!
0O!
0P!
0Q!
0R!
0S!
0T!
0U!
0V!
0W!
0X!
0Y!
0Z!
0[!
0\!
0]!
0^!
0_!
0`!
0a!
xb!
0c!
0d!
0e!
1`
1a
1b
0c
1\
1]
1^
0_
0!
0"
0#
0$
0'
0(
0)
0*
05
06
07
08
0P
0Q
0R
0S
0T
0U
0V
0W
0X
0Y
0Z
0[
$end
#5000
1&
1C
1q
1c
1r
#10000
0&
0%
0C
0E
0(!
0q
0c
1*!
1,!
0r
#15000
1&
1C
1q
1c
1r
#20000
0&
0C
0q
0c
0r
#25000
1&
1C
1q
1c
1r
#30000
0&
13
0C
1N
1u
0q
1_
0c
0r
1v
#35000
1&
1C
1q
1c
1r
1]!
1\!
1Z!
1Y!
1W!
1V!
18!
#40000
0&
0C
0q
0c
0r
#45000
1&
1C
1q
1c
1r
#50000
0&
1%
04
0C
1E
0D
0s
1(!
0q
0c
0,!
1t
1z
0r
#55000
1&
1C
1q
1c
1r
1w
1{
1|
1,!
1.!
00!
14!
06!
0@!
0I!
0z
#60000
0&
0C
0q
0c
0r
#65000
1&
1C
1q
1c
1r
0{
1}
0]!
1[!
0Z!
1X!
0W!
1Q!
19!
1:!
1;!
0*!
1x
1"!
0|
0,!
0.!
10!
04!
16!
1@!
1I!
1e
1S
18
#70000
0&
14
0C
1D
1s
0q
0c
0r
#75000
1&
1C
1q
1c
1r
1y
0}
1e!
0x
1z
08!
0:!
1<!
1A!
1C!
1H!
0I!
1I!
#80000
0&
0C
0q
0c
0r
#85000
1&
1C
1q
1c
1r
0y
1{
1|
0+!
1,!
1.!
02!
14!
07!
0z
18!
1:!
0<!
0@!
0A!
0C!
0H!
0I!
#90000
0&
0C
0q
0c
0r
#95000
1&
1C
1q
1c
1r
0{
1}
0\!
1Z!
0Y!
1W!
0V!
1P!
09!
1<!
08!
1x
1~
0"!
0|
1+!
0,!
0.!
12!
04!
17!
1@!
1I!
1f
1R
17
#100000
0&
0C
0q
0c
0r
#105000
1&
1C
1q
1c
1r
1y
0}
1d!
0e!
0x
1z
1A!
1C!
1H!
0I!
1I!
#110000
0&
0C
0q
0c
0r
#115000
1&
1C
1q
1c
1r
0y
1{
1|
0+!
1,!
0z
0@!
0A!
0C!
0H!
0I!
#120000
0&
0C
0q
0c
0r
#125000
1&
1C
1q
1c
1r
0{
1}
0[!
1Y!
0X!
1V!
1O!
0Q!
19!
0:!
0;!
1=!
1>!
0?!
18!
1x
1"!
0|
1+!
0,!
1@!
1I!
0e
1g
0S
1Q
08
16
#130000
0&
0C
0q
0c
0r
#135000
1&
1C
1q
1c
1r
1y
0}
1e!
0x
1z
0<!
0@!
1A!
1C!
1H!
0I!
1I!
#140000
0&
0C
0q
0c
0r
#145000
1&
1C
1q
1c
1r
0y
1{
0P!
0O!
1N!
1Q!
1;!
1?!
1|
0+!
1,!
00!
14!
06!
0z
1:!
0>!
0C!
0H!
0I!
1e
1h
0g
0f
1S
1P
0Q
0R
18
07
06
15
#150000
0&
0C
0q
0c
0r
#155000
1&
1C
1q
1c
1r
0{
1}
0Z!
1X!
0W!
1P!
0N!
1U!
1B!
1C!
1D!
0A!
09!
1<!
0=!
1x
0~
1!!
0"!
0|
1+!
0,!
10!
04!
16!
1@!
1I!
1i
0h
1f
1W
0P
1R
1*
17
05
#160000
0&
0C
0q
0c
0r
#165000
1&
1C
1q
1c
1r
1y
0}
0d!
1c!
0e!
0x
1z
08!
0C!
1E!
1H!
0I!
1I!
#170000
0&
0C
0q
0c
0r
#175000
1&
1C
1q
1c
1r
0y
1{
1|
0+!
1,!
00!
02!
14!
07!
0z
18!
0@!
1C!
0E!
0H!
0I!
#180000
0&
0C
0q
0c
0r
#185000
1&
1C
1q
1c
1r
0{
1}
0Y!
1W!
0V!
1O!
1T!
0U!
0C!
1E!
0;!
1=!
1>!
0?!
08!
1x
1"!
0|
1+!
0,!
10!
12!
04!
17!
1@!
1I!
0i
1j
1g
0W
1V
1Q
0*
1)
16
#190000
0&
0C
0q
0c
0r
#195000
1&
1C
1q
1c
1r
1y
0}
1e!
0x
1z
0<!
0@!
1A!
1H!
0I!
1I!
#200000
0&
0C
0q
0c
0r
#205000
1&
1C
1q
1c
1r
0y
1{
0O!
1N!
0Q!
19!
1;!
1?!
1|
0+!
1,!
00!
02!
0z
0:!
1<!
0>!
0H!
0I!
0e
1h
0g
0S
1P
0Q
08
06
15
#210000
0&
0C
0q
0c
0r
#215000
1&
1C
1q
1c
1r
0{
1}
0X!
1V!
0P!
1O!
0N!
0T!
1S!
1U!
1C!
1G!
0D!
0E!
1F!
0A!
1>!
09!
0<!
0=!
18!
1x
1~
0"!
0|
1+!
0,!
10!
12!
1@!
1I!
1i
1k
0j
0h
1g
0f
1W
1U
0V
0P
1Q
0R
1*
0)
1(
07
16
05
#220000
0&
0C
0q
0c
0r
#225000
1&
1C
1q
1c
1r
1y
0}
1d!
0e!
0x
1z
1:!
1<!
0>!
0C!
0I!
#230000
0&
0C
0q
0c
0r
#235000
1&
1C
1q
1c
1r
0y
1{
0S!
1R!
0U!
0B!
1J!
1|
0+!
1,!
00!
02!
06!
0z
0:!
0<!
1>!
0@!
0G!
0i
1l
0k
0W
1T
0U
0*
0(
1'
#240000
0&
0C
0q
0c
0r
#245000
1&
1C
1q
1c
1r
0{
1}
0W!
0O!
1N!
1Q!
0R!
1a!
1K!
0F!
0J!
19!
1:!
1A!
1=!
0>!
1x
1"!
0|
1+!
0,!
10!
12!
16!
1@!
1I!
1m
0l
1e
1h
0g
1[
0T
1S
1P
0Q
1$
0'
18
06
15
#250000
0&
0C
0q
0c
0r
#255000
1&
1C
1q
1c
1r
1y
0}
1e!
0x
1z
08!
0:!
1<!
1>!
0@!
1C!
1H!
0I!
1I!
#260000
0&
0C
0q
0c
0r
#265000
1&
1C
1q
1c
1r
0y
1{
1O!
0Q!
09!
1|
0+!
1,!
00!
02!
06!
07!
0z
18!
0<!
0C!
0H!
0I!
0e
1g
0S
1Q
08
16
#270000
0&
0C
0q
0c
0r
#275000
1&
1C
1q
1c
1r
0{
1}
0V!
0O!
1Q!
1U!
0a!
1`!
1L!
0K!
1B!
1C!
1D!
19!
1:!
0>!
08!
1#!
0|
1+!
0,!
10!
12!
16!
17!
1@!
1I!
1$!
1n
0m
1i
1e
0g
1Z
0[
1W
1S
0Q
0$
1#
1*
18
06
#280000
0&
0C
0q
0c
0r
#285000
1&
1C
1q
1c
1r
0}
1%!
0#!
1d
1O
19
#290000
0&
03
1-
10
0C
0N
1K
1H
13!
1-!
0u
0q
0_
0c
1.!
14!
0r
0v
0w
0d!
0c!
0e!
0%!
0N!
0Q!
0U!
0`!
0L!
0B!
0C!
0D!
09!
0:!
0;!
0=!
0A!
0$!
0~
0!!
0"!
0t
0n
0i
0e
0h
0d
0Z
0W
0S
0P
0O
0#
0*
08
05
09
#295000
1&
1C
1q
1c
1r
#300000
0&
0C
0q
0c
0r
#305000
1&
1C
1q
1c
1r
#310000
0&
13
0%
0C
1N
0E
0(!
1u
0q
1_
0c
1*!
1,!
0r
1v
#315000
1&
1C
1q
1c
1r
1]!
1\!
1[!
1Z!
1Y!
1X!
1W!
1V!
18!
#320000
0&
04
0C
0D
0s
0q
0c
1t
1z
0r
#325000
1&
1C
1q
1c
1r
1w
1{
1|
0@!
0I!
0z
#330000
0&
1%
0C
1E
1(!
0q
0c
0r
#335000
1&
1C
1q
1c
1r
0{
1}
0]!
1Q!
19!
1:!
1;!
0*!
1x
1"!
0|
0,!
1@!
1I!
1e
1S
18
#340000
0&
14
0C
1D
1s
0q
0c
0r
#345000
1&
1C
1q
1c
1r
1y
0}
1e!
0x
1z
08!
0:!
1<!
1A!
1C!
1H!
0I!
1I!
#350000
0&
0C
0q
0c
0r
#355000
1&
1C
1q
1c
1r
0y
1{
1|
0+!
1,!
0z
18!
1:!
0<!
0@!
0A!
0C!
0H!
0I!
#360000
0&
0C
0q
0c
0r
#365000
1&
1C
1q
1c
1r
0{
1}
0\!
1P!
09!
1<!
1x
1~
0"!
0|
1+!
0,!
1@!
1I!
1f
1R
17
#370000
0&
0C
0q
0c
0r
#375000
1&
1C
1q
1c
1r
1y
0}
1d!
0e!
0x
1z
08!
1A!
1C!
1H!
0I!
1I!
#380000
0&
0C
0q
0c
0r
#385000
1&
1C
1q
1c
1r
0y
1{
1|
0+!
1,!
0.!
0z
18!
0@!
0A!
0C!
0H!
0I!
#390000
0&
0C
0q
0c
0r
#395000
1&
1C
1q
1c
1r
0{
1}
0[!
1O!
0;!
1=!
1>!
0?!
1x
1"!
0|
1+!
0,!
1.!
1@!
1I!
1g
1Q
16
#400000
0&
0C
0q
0c
0r
#405000
1&
1C
1q
1c
1r
1y
0}
1e!
0x
1z
08!
0<!
0@!
1A!
1C!
1H!
0I!
1I!
#410000
0&
0C
0q
0c
0r
#415000
1&
1C
1q
1c
1r
0y
1{
0O!
1N!
0Q!
19!
1;!
1?!
1|
0+!
1,!
0.!
00!
0z
18!
0:!
1<!
0>!
0C!
0H!
0I!
0e
1h
0g
0S
1P
0Q
08
06
15
#420000
0&
0C
0q
0c
0r
#425000
1&
1C
1q
1c
1r
0{
1}
0Z!
0P!
1O!
0N!
1Q!
1U!
1B!
1C!
1D!
1:!
0A!
1>!
0;!
0<!
0?!
1x
0~
1!!
0"!
0|
1+!
0,!
1.!
10!
1@!
1I!
1i
1e
0h
1g
0f
1W
1S
0P
1Q
0R
1*
18
07
16
05
#430000
0&
0C
0q
0c
0r
#435000
1&
1C
1q
1c
1r
1y
0}
0d!
1c!
0e!
0x
1z
08!
0:!
0@!
0C!
1E!
1H!
0I!
1I!
#440000
0&
0C
0q
0c
0r
#445000
1&
1C
1q
1c
1r
0y
1{
0O!
1N!
0Q!
09!
1?!
1|
0+!
1,!
0.!
00!
02!
0z
18!
0>!
1A!
1C!
0E!
0H!
0I!
0e
1h
0g
0S
1P
0Q
08
06
15
#450000
0&
0C
0q
0c
0r
#455000
1&
1C
1q
1c
1r
0{
1}
0Y!
0N!
1Q!
1T!
0B!
1E!
19!
1:!
1;!
0=!
0A!
1x
1"!
0|
1+!
0,!
1.!
10!
12!
1@!
1I!
1j
1e
0h
1V
1S
0P
1)
18
05
#460000
0&
0C
0q
0c
0r
#465000
1&
1C
1q
1c
1r
1y
0}
1e!
0x
1z
08!
0:!
1<!
1H!
0I!
1I!
#470000
0&
0C
0q
0c
0r
#475000
1&
1C
1q
1c
1r
0y
1{
1|
0+!
1,!
0.!
00!
02!
04!
0z
18!
1:!
0<!
0@!
0H!
0I!
#480000
0&
0C
0q
0c
0r
#485000
1&
1C
1q
1c
1r
0{
1}
0X!
1P!
1S!
0U!
1B!
0C!
0D!
1F!
1G!
09!
1<!
1x
1~
0"!
0|
1+!
0,!
1.!
10!
12!
14!
1@!
1I!
0i
1k
1f
0W
1U
1R
0*
1(
17
#490000
0&
0C
0q
0c
0r
#495000
1&
1C
1q
1c
1r
1y
0}
1d!
0e!
0x
1z
08!
1A!
0E!
0I!
#500000
0&
0C
0q
0c
0r
#505000
1&
1C
1q
1c
1r
0y
1{
0T!
0S!
1R!
1U!
1J!
1D!
1|
0+!
1,!
0.!
00!
02!
04!
06!
0z
18!
0@!
0A!
1C!
0G!
1i
1l
0k
0j
1W
1T
0U
0V
1*
0)
0(
1'
#510000
0&
0C
0q
0c
0r
#515000
1&
1C
1q
1c
1r
0{
1}
0W!
1O!
1T!
0R!
0U!
1a!
1K!
0C!
0J!
1E!
0F!
0;!
1=!
1>!
0?!
1x
1"!
0|
1+!
0,!
1.!
10!
12!
14!
16!
1@!
1I!
1m
0i
0l
1j
1g
1[
0W
0T
1V
1Q
1$
0*
1)
0'
16
#520000
0&
0C
0q
0c
0r
#525000
1&
1C
1q
1c
1r
1y
0}
1e!
0x
1z
08!
0<!
0@!
1A!
1H!
0I!
1I!
#530000
0&
0C
0q
0c
0r
#535000
1&
1C
1q
1c
1r
0y
1{
0O!
1N!
0Q!
19!
1;!
1?!
1|
0+!
1,!
0.!
00!
02!
04!
06!
07!
0z
18!
0:!
1<!
0>!
0H!
0I!
0e
1h
0g
0S
1P
0Q
08
06
15
#540000
0&
0C
0q
0c
0r
#545000
1&
1C
1q
1c
1r
0{
1}
0V!
0P!
1O!
0N!
1Q!
0T!
1S!
1U!
0a!
1`!
1L!
0K!
1C!
1G!
0D!
0E!
1F!
1:!
0A!
1>!
0;!
0<!
0?!
08!
1#!
0|
1+!
0,!
1.!
10!
12!
14!
16!
17!
1@!
1I!
1$!
1n
0m
1i
1k
0j
1e
0h
1g
0f
1Z
0[
1W
1U
0V
1S
0P
1Q
0R
0$
1#
1*
0)
1(
18
07
16
05
#550000
0&
03
0-
0+
0,
0.
0/
01
02
0C
0N
0M
0L
0J
0I
0H
0G
0F
0&!
05!
03!
01!
0/!
0'!
0)!
0u
0q
0_
0c
0+!
00!
02!
04!
06!
07!
0r
0v
0w
0}
0d!
0c!
0e!
0O!
0Q!
0S!
0U!
0`!
0L!
0B!
0C!
0F!
0G!
09!
0:!
0=!
0>!
1?!
0~
0!!
0"!
0#!
0t
0$!
0n
0i
0k
0e
0g
0Z
0W
0U
0S
0Q
0#
0*
0(
08
06
#555000
1&
1C
1q
1c
1r
#560000
0&
0C
0q
0c
0r
#565000
1&
1C
1q
1c
1r
#570000
0&
13
04
0%
0C
1N
0D
0E
0(!
0s
1u
0q
1_
0c
1t
1z
1,!
0r
1v
#575000
1&
1C
1q
1c
1r
1w
1{
1[!
1|
0.!
10!
0@!
0I!
0z
#580000
0&
1%
0C
1E
1(!
0q
0c
0r
#585000
1&
1C
1q
1c
1r
0{
1}
0[!
1Z!
1x
1"!
0|
0,!
1.!
00!
1@!
1I!
#590000
0&
14
0C
1D
1s
0q
0c
0r
#595000
1&
1C
1q
1c
1r
1y
0}
1e!
0x
1z
18!
1:!
1A!
1C!
1H!
0I!
1I!
#600000
0&
0C
0q
0c
0r
#605000
1&
1C
1q
1c
1r
0y
1{
1|
1,!
0.!
12!
0z
08!
0:!
0@!
0A!
0C!
0H!
0I!
#610000
0&
0C
0q
0c
0r
#615000
1&
1C
1q
1c
1r
0{
1}
0Z!
1Y!
1x
1~
0"!
0|
0,!
1.!
02!
1@!
1I!
#620000
0&
1+
1,
1.
1/
11
12
00
0C
1M
1L
0K
1J
1I
1G
1F
1&!
15!
11!
1/!
0-!
1'!
1)!
0q
0c
1+!
0.!
10!
12!
16!
17!
0r
#625000
1&
1C
1q
1c
1r
1y
0}
1d!
0e!
0x
1z
18!
1:!
1A!
1C!
1H!
0I!
1I!
#630000
0&
0C
0q
0c
0r
#635000
1&
1C
1q
1c
1r
0y
1{
1|
0+!
1,!
00!
02!
14!
06!
07!
0z
08!
0:!
0@!
0A!
0C!
0H!
0I!
#640000
0&
0C
0q
0c
0r
#645000
1&
1C
1q
1c
1r
0{
1}
0Y!
1X!
1x
1"!
0|
1+!
0,!
10!
12!
04!
16!
17!
1@!
1I!
#650000
0&
0C
0q
0c
0r
#655000
1&
1C
1q
1c
1r
1y
0}
1e!
0x
1z
18!
1:!
1A!
1C!
1H!
0I!
1I!
#660000
0&
0C
0q
0c
0r
#665000
1&
1C
1q
1c
1r
0y
1{
1|
0+!
1,!
00!
02!
07!
0z
08!
0:!
0@!
0A!
0C!
0H!
0I!
#670000
0&
0C
0q
0c
0r
#675000
1&
1C
1q
1c
1r
0{
1}
0X!
1W!
1x
0~
1!!
0"!
0|
1+!
0,!
10!
12!
17!
1@!
1I!
#680000
0&
0C
0q
0c
0r
#685000
1&
1C
1q
1c
1r
1y
0}
0d!
1c!
0e!
0x
1z
18!
1:!
1A!
1C!
1H!
0I!
1I!
#690000
0&
0C
0q
0c
0r
#695000
1&
1C
1q
1c
1r
0y
1{
1|
0+!
1,!
00!
02!
06!
0z
08!
0:!
0@!
0A!
0C!
0H!
0I!
#700000
0&
0C
0q
0c
0r
#705000
1&
1C
1q
1c
1r
0{
1}
0W!
1V!
18!
1x
1"!
0|
1+!
0,!
10!
12!
16!
1@!
1I!
#710000
0&
0C
0q
0c
0r
#715000
1&
1C
1q
1c
1r
1y
0}
1e!
0x
1z
1:!
1A!
1C!
1H!
0I!
1I!
#720000
0&
0C
0q
0c
0r
#725000
1&
1C
1q
1c
1r
0y
1{
1|
0+!
1,!
00!
02!
06!
07!
0z
0:!
0@!
0A!
0C!
0H!
0I!
#730000
0&
0C
0q
0c
0r
#735000
1&
1C
1q
1c
1r
0{
1}
0V!
1Q!
19!
1:!
1;!
08!
1x
1~
0"!
0|
1+!
0,!
10!
12!
16!
17!
1@!
1I!
1e
1S
18
#740000
0&
0C
0q
0c
0r
#745000
1&
1C
1q
1c
1r
1y
0}
1d!
0e!
0x
1z
0:!
1<!
1A!
1C!
1H!
0I!
1I!
#750000
0&
0C
0q
0c
0r
#755000
1&
1C
1q
1c
1r
0y
1{
1|
0+!
1,!
00!
02!
06!
07!
0z
1:!
0<!
0@!
0A!
0C!
0H!
0I!
#760000
0&
0C
0q
0c
0r
#765000
1&
1C
1q
1c
1r
0{
1}
1P!
0Q!
0:!
1<!
1x
1"!
0|
1+!
0,!
10!
12!
16!
17!
1@!
1I!
0e
1f
0S
1R
08
17
#770000
0&
0C
0q
0c
0r
#775000
1&
1C
1q
1c
1r
1y
0}
1e!
0x
1z
18!
1A!
1C!
1H!
0I!
1I!
#780000
0&
0C
0q
0c
0r
#785000
1&
1C
1q
1c
1r
0y
1{
1|
0+!
1,!
00!
02!
06!
07!
0z
08!
0@!
0A!
0C!
0H!
0I!
#790000
0&
0C
0q
0c
0r
#795000
1&
1C
1q
1c
1r
0{
1}
0P!
1O!
1>!
09!
0<!
1#!
0|
1+!
0,!
10!
12!
16!
17!
1@!
1I!
1$!
1g
0f
1Q
0R
07
16
#800000
0&
0C
0q
0c
0r
#805000
1&
1C
1q
1c
1r
0}
1%!
0#!
1d
1O
19
#810000
0&
0C
0q
0c
0r
#815000
1&
1C
1q
1c
1r
#820000
0&
0C
0q
0c
0r
#825000
1&
1C
1q
1c
1r
#830000
0&
0C
0q
0c
0r
#835000
1&
1C
1q
1c
1r
#840000
0&
0C
0q
0c
0r
#845000
1&
1C
1q
1c
1r
#850000
0&
0C
0q
0c
0r
#855000
1&
1C
1q
1c
1r
#860000
0&
0C
0q
0c
0r
#865000
1&
1C
1q
1c
1r
#870000
0&
0C
0q
0c
0r
#875000
1&
1C
1q
1c
1r
#880000
0&
0C
0q
0c
0r
#885000
1&
1C
1q
1c
1r
#890000
0&
0C
0q
0c
0r
#895000
1&
1C
1q
1c
1r
#900000
0&
0C
0q
0c
0r
#905000
1&
1C
1q
1c
1r
#910000
0&
0C
0q
0c
0r
#915000
1&
1C
1q
1c
1r
#920000
0&
0C
0q
0c
0r
#925000
1&
1C
1q
1c
1r
#930000
0&
0C
0q
0c
0r
#935000
1&
1C
1q
1c
1r
#940000
0&
0C
0q
0c
0r
#945000
1&
1C
1q
1c
1r
#950000
0&
0C
0q
0c
0r
#955000
1&
1C
1q
1c
1r
#960000
0&
0C
0q
0c
0r
#965000
1&
1C
1q
1c
1r
#970000
0&
0C
0q
0c
0r
#975000
1&
1C
1q
1c
1r
#980000
0&
0C
0q
0c
0r
#985000
1&
1C
1q
1c
1r
#990000
0&
0C
0q
0c
0r
#995000
1&
1C
1q
1c
1r
