guia5/ej6/simulation/qsim/ej6.msim.vcd
$comment
	File created using the following command:
		vcd file ej6.msim.vcd -direction
$end
$date
	Fri May  3 14:44:16 2024
$end
$version
	Questa Intel Starter FPGA Edition Version 2023.3
$end
$timescale
	1ps
$end

$scope module ej6_vhd_vec_tst $end
$var wire 1 ! CE $end
$var wire 1 " clk $end
$var wire 1 # input [3] $end
$var wire 1 $ input [2] $end
$var wire 1 % input [1] $end
$var wire 1 & input [0] $end
$var wire 1 ' L $end
$var wire 1 ( output [3] $end
$var wire 1 ) output [2] $end
$var wire 1 * output [1] $end
$var wire 1 + output [0] $end
$var wire 1 , rst $end

$scope module i1 $end
$var wire 1 - gnd $end
$var wire 1 . vcc $end
$var wire 1 / unknown $end
$var wire 1 0 devoe $end
$var wire 1 1 devclrn $end
$var wire 1 2 devpor $end
$var wire 1 3 ww_devoe $end
$var wire 1 4 ww_devclrn $end
$var wire 1 5 ww_devpor $end
$var wire 1 6 ww_output [3] $end
$var wire 1 7 ww_output [2] $end
$var wire 1 8 ww_output [1] $end
$var wire 1 9 ww_output [0] $end
$var wire 1 : ww_input [3] $end
$var wire 1 ; ww_input [2] $end
$var wire 1 < ww_input [1] $end
$var wire 1 = ww_input [0] $end
$var wire 1 > ww_clk $end
$var wire 1 ? ww_rst $end
$var wire 1 @ ww_CE $end
$var wire 1 A ww_L $end
$var wire 1 B \cuenta[3]~27clkctrl_INCLK_bus\ [3] $end
$var wire 1 C \cuenta[3]~27clkctrl_INCLK_bus\ [2] $end
$var wire 1 D \cuenta[3]~27clkctrl_INCLK_bus\ [1] $end
$var wire 1 E \cuenta[3]~27clkctrl_INCLK_bus\ [0] $end
$var wire 1 F \clk~inputclkctrl_INCLK_bus\ [3] $end
$var wire 1 G \clk~inputclkctrl_INCLK_bus\ [2] $end
$var wire 1 H \clk~inputclkctrl_INCLK_bus\ [1] $end
$var wire 1 I \clk~inputclkctrl_INCLK_bus\ [0] $end
$var wire 1 J \output[0]~output_o\ $end
$var wire 1 K \output[1]~output_o\ $end
$var wire 1 L \output[2]~output_o\ $end
$var wire 1 M \output[3]~output_o\ $end
$var wire 1 N \input[0]~input_o\ $end
$var wire 1 O \rst~input_o\ $end
$var wire 1 P \L~input_o\ $end
$var wire 1 Q \cuenta[3]~27_combout\ $end
$var wire 1 R \clk~input_o\ $end
$var wire 1 S \clk~inputclkctrl_outclk\ $end
$var wire 1 T \CE~input_o\ $end
$var wire 1 U \cuenta[3]~27clkctrl_outclk\ $end
$var wire 1 V \cuenta[0]~1_combout\ $end
$var wire 1 W \cuenta[0]~4_combout\ $end
$var wire 1 X \cuenta[0]~0_combout\ $end
$var wire 1 Y \cuenta[0]~_emulated_q\ $end
$var wire 1 Z \cuenta[0]~3_combout\ $end
$var wire 1 [ \cuenta[0]~2_combout\ $end
$var wire 1 \ \input[1]~input_o\ $end
$var wire 1 ] \cuenta[1]~6_combout\ $end
$var wire 1 ^ \cuenta[1]~9_combout\ $end
$var wire 1 _ \cuenta[1]~_emulated_q\ $end
$var wire 1 ` \cuenta[1]~8_combout\ $end
$var wire 1 a \cuenta[1]~7_combout\ $end
$var wire 1 b \input[2]~input_o\ $end
$var wire 1 c \cuenta[2]~11_combout\ $end
$var wire 1 d \Add0~0_combout\ $end
$var wire 1 e \cuenta[2]~14_combout\ $end
$var wire 1 f \cuenta[2]~_emulated_q\ $end
$var wire 1 g \cuenta[2]~13_combout\ $end
$var wire 1 h \cuenta[2]~12_combout\ $end
$var wire 1 i \input[3]~input_o\ $end
$var wire 1 j \cuenta[3]~28_combout\ $end
$var wire 1 k \cuenta[3]~16_combout\ $end
$var wire 1 l \cuenta[3]~19_combout\ $end
$var wire 1 m \cuenta[3]~_emulated_q\ $end
$var wire 1 n \cuenta[3]~18_combout\ $end
$var wire 1 o \cuenta[3]~17_combout\ $end
$var wire 1 p \ALT_INV_cuenta[0]~0_combout\ $end
$upscope $end
$upscope $end
$enddefinitions $end
#0
$dumpvars
0!
0"
0'
0,
0-
1.
x/
10
11
12
13
14
15
0>
0?
0@
0A
xJ
xK
xL
xM
0N
0O
0P
0Q
0R
0S
0T
0U
xV
xW
0X
0Y
xZ
x[
0\
x]
x^
0_
x`
xa
0b
xc
xd
xe
0f
xg
xh
0i
xj
xk
xl
0m
xn
xo
1p
0#
0$
0%
0&
x(
x)
x*
x+
0:
0;
0<
0=
1F
1G
1H
0I
1B
1C
1D
0E
x6
x7
x8
x9
$end
#5000
1"
1>
1R
1I
1S
xY
x_
xf
xm
#10000
0"
0>
0R
0I
0S
#15000
1"
1>
1R
1I
1S
#20000
0"
0>
0R
0I
0S
#25000
1"
1>
1R
1I
1S
#30000
0"
0>
0R
0I
0S
#35000
1"
1>
1R
1I
1S
#40000
0"
1!
0>
1@
1T
0R
0I
0S
#45000
1"
1>
1R
1I
1S
#50000
0"
0>
0R
0I
0S
#55000
1"
1>
1R
1I
1S
#60000
0"
0>
0R
0I
0S
#65000
1"
1>
1R
1I
1S
#70000
0"
0>
0R
0I
0S
#75000
1"
1>
1R
1I
1S
#80000
0"
0>
0R
0I
0S
#85000
1"
1>
1R
1I
1S
#90000
0"
0!
0>
0@
0T
0R
0I
0S
#95000
1"
1>
1R
1I
1S
#100000
0"
0>
0R
0I
0S
#105000
1"
1>
1R
1I
1S
#110000
0"
1,
0>
1?
1O
0R
0I
0V
1X
0[
0]
0a
0c
0h
0k
0o
0p
0j
0e
0^
0d
0W
0S
0Y
0_
0f
0m
0l
0M
0L
0K
0J
0n
0g
0`
0Z
06
07
08
09
0+
0*
0)
0(
#115000
1"
1>
1R
1I
1S
#120000
0"
0>
0R
0I
0S
#125000
1"
1>
1R
1I
1S
#130000
0"
0,
0>
0?
0O
0R
0I
0X
1p
0S
#135000
1"
1>
1R
1I
1S
#140000
0"
0>
0R
0I
0S
#145000
1"
1>
1R
1I
1S
#150000
0"
0>
0R
0I
0S
#155000
1"
1>
1R
1I
1S
#160000
0"
0>
0R
0I
0S
#165000
1"
1>
1R
1I
1S
#170000
0"
1!
0>
1@
1T
0R
0I
1W
0S
#175000
1"
1>
1R
1I
1S
1Y
1Z
1[
0W
1^
1J
19
1+
#180000
0"
0>
0R
0I
0S
#185000
1"
1>
1R
1I
1S
0Y
1_
1`
0Z
0[
1a
1W
1K
0J
18
09
0+
1*
#190000
0"
0>
0R
0I
0S
#195000
1"
1>
1R
1I
1S
1Y
1Z
1[
0W
0^
1d
1e
1J
19
1+
#200000
0"
0>
0R
0I
0S
#205000
1"
1>
1R
1I
1S
0Y
0_
1f
1g
0`
0Z
0[
0a
1h
0e
1j
1W
0d
1e
0j
1l
1L
0K
0J
0l
17
08
09
0+
0*
1)
#210000
0"
0>
0R
0I
0S
#215000
1"
1>
1R
1I
1S
1Y
1Z
1[
0W
1^
1J
19
1+
#220000
0"
0>
0R
0I
0S
#225000
1"
1>
1R
1I
1S
0Y
1_
1`
0Z
0[
1a
1W
1K
0J
18
09
0+
1*
#230000
0"
1#
1%
1'
0>
1<
1:
1A
1P
1i
1\
0R
0I
1Q
1E
1X
0h
1o
0S
0p
0e
1j
1U
0_
0f
1l
1M
0L
0g
0`
1]
1k
16
07
0l
1n
0^
1`
0)
1(
#235000
1"
1>
1R
1I
1S
#240000
0"
0>
0R
0I
0S
#245000
1"
1>
1R
1I
1S
#250000
0"
0>
0R
0I
0S
#255000
1"
1>
1R
1I
1S
#260000
0"
0>
0R
0I
0S
#265000
1"
1>
1R
1I
1S
#270000
0"
0'
0>
0A
0P
0R
0I
0Q
0E
0X
0S
1p
0U
#275000
1"
1>
1R
1I
1S
1Y
1Z
1[
0W
1^
1d
1e
1J
19
1+
#280000
0"
0#
0%
0>
0<
0:
0i
0\
0R
0I
0S
#285000
1"
1>
1R
1I
1S
0Y
1_
1f
1g
0`
0Z
0[
0a
1h
0e
0j
1W
0d
1e
1j
1l
1L
0K
0J
0l
17
08
09
0+
0*
1)
#290000
0"
0>
0R
0I
0S
#295000
1"
1>
1R
1I
1S
1Y
1Z
1[
0W
0^
1J
19
1+
#300000
0"
0>
0R
0I
0S
#305000
1"
1>
1R
1I
1S
0Y
0_
1`
0Z
0[
1a
1W
1K
0J
18
09
0+
1*
#310000
0"
0>
0R
0I
0S
#315000
1"
1>
1R
1I
1S
1Y
1Z
1[
0W
1^
1d
0e
0j
1J
1l
19
1+
#320000
0"
0>
0R
0I
0S
#325000
1"
1>
1R
1I
1S
0Y
1_
0f
1m
0n
0g
0`
0Z
0[
0a
0h
0o
1e
1W
0d
0e
0M
0L
0K
0J
06
07
08
09
0+
0*
0)
0(
#330000
0"
0>
0R
0I
0S
#335000
1"
1>
1R
1I
1S
1Y
1Z
1[
0W
0^
1J
19
1+
#340000
0"
0>
0R
0I
0S
#345000
1"
1>
1R
1I
1S
0Y
0_
1`
0Z
0[
1a
1W
1K
0J
18
09
0+
1*
#350000
0"
0>
0R
0I
0S
#355000
1"
1>
1R
1I
1S
1Y
1Z
1[
0W
1^
1d
1e
1J
19
1+
#360000
0"
0>
0R
0I
0S
#365000
1"
1>
1R
1I
1S
0Y
1_
1f
1g
0`
0Z
0[
0a
1h
0e
1j
1W
0d
1e
0j
0l
1L
0K
0J
1l
17
08
09
0+
0*
1)
#370000
0"
0>
0R
0I
0S
#375000
1"
1>
1R
1I
1S
1Y
1Z
1[
0W
0^
1J
19
1+
#380000
0"
0>
0R
0I
0S
#385000
1"
1>
1R
1I
1S
0Y
0_
1`
0Z
0[
1a
1W
1K
0J
18
09
0+
1*
#390000
0"
0>
0R
0I
0S
#395000
1"
1>
1R
1I
1S
1Y
1Z
1[
0W
1^
1d
0e
1j
1J
0l
19
1+
#400000
0"
0>
0R
0I
0S
#405000
1"
1>
1R
1I
1S
0Y
1_
0f
0m
1n
0g
0`
0Z
0[
0a
0h
1o
1e
1W
0d
0e
1M
0L
0K
0J
16
07
08
09
0+
0*
0)
1(
#410000
0"
0>
0R
0I
0S
#415000
1"
1>
1R
1I
1S
1Y
1Z
1[
0W
0^
1J
19
1+
#420000
0"
0>
0R
0I
0S
#425000
1"
1>
1R
1I
1S
0Y
0_
1`
0Z
0[
1a
1W
1K
0J
18
09
0+
1*
#430000
0"
0>
0R
0I
0S
#435000
1"
1>
1R
1I
1S
1Y
1Z
1[
0W
1^
1d
1e
1J
19
1+
#440000
0"
0>
0R
0I
0S
#445000
1"
1>
1R
1I
1S
0Y
1_
1f
1g
0`
0Z
0[
0a
1h
0e
0j
1W
0d
1e
1j
1l
1L
0K
0J
0l
17
08
09
0+
0*
1)
#450000
0"
0>
0R
0I
0S
#455000
1"
1>
1R
1I
1S
1Y
1Z
1[
0W
0^
1J
19
1+
#460000
0"
0>
0R
0I
0S
#465000
1"
1>
1R
1I
1S
0Y
0_
1`
0Z
0[
1a
1W
1K
0J
18
09
0+
1*
#470000
0"
0>
0R
0I
0S
#475000
1"
1>
1R
1I
1S
1Y
1Z
1[
0W
1^
1d
0e
0j
1J
1l
19
1+
#480000
0"
0>
0R
0I
0S
#485000
1"
1>
1R
1I
1S
0Y
1_
0f
1m
0n
0g
0`
0Z
0[
0a
0h
0o
1e
1W
0d
0e
0M
0L
0K
0J
06
07
08
09
0+
0*
0)
0(
#490000
0"
0>
0R
0I
0S
#495000
1"
1>
1R
1I
1S
1Y
1Z
1[
0W
0^
1J
19
1+
#500000
0"
0>
0R
0I
0S
#505000
1"
1>
1R
1I
1S
0Y
0_
1`
0Z
0[
1a
1W
1K
0J
18
09
0+
1*
#510000
0"
0>
0R
0I
0S
#515000
1"
1>
1R
1I
1S
1Y
1Z
1[
0W
1^
1d
1e
1J
19
1+
#520000
0"
0>
0R
0I
0S
#525000
1"
1>
1R
1I
1S
0Y
1_
1f
1g
0`
0Z
0[
0a
1h
0e
1j
1W
0d
1e
0j
0l
1L
0K
0J
1l
17
08
09
0+
0*
1)
#530000
0"
0>
0R
0I
0S
#535000
1"
1>
1R
1I
1S
1Y
1Z
1[
0W
0^
1J
19
1+
#540000
0"
0>
0R
0I
0S
#545000
1"
1>
1R
1I
1S
0Y
0_
1`
0Z
0[
1a
1W
1K
0J
18
09
0+
1*
#550000
0"
0>
0R
0I
0S
#555000
1"
1>
1R
1I
1S
1Y
1Z
1[
0W
1^
1d
0e
1j
1J
0l
19
1+
#560000
0"
0>
0R
0I
0S
#565000
1"
1>
1R
1I
1S
0Y
1_
0f
0m
1n
0g
0`
0Z
0[
0a
0h
1o
1e
1W
0d
0e
1M
0L
0K
0J
16
07
08
09
0+
0*
0)
1(
#570000
0"
0>
0R
0I
0S
#575000
1"
1>
1R
1I
1S
1Y
1Z
1[
0W
0^
1J
19
1+
#580000
0"
0>
0R
0I
0S
#585000
1"
1>
1R
1I
1S
0Y
0_
1`
0Z
0[
1a
1W
1K
0J
18
09
0+
1*
#590000
0"
0>
0R
0I
0S
#595000
1"
1>
1R
1I
1S
1Y
1Z
1[
0W
1^
1d
1e
1J
19
1+
#600000
0"
0>
0R
0I
0S
#605000
1"
1>
1R
1I
1S
0Y
1_
1f
1g
0`
0Z
0[
0a
1h
0e
0j
1W
0d
1e
1j
1l
1L
0K
0J
0l
17
08
09
0+
0*
1)
#610000
0"
0>
0R
0I
0S
#615000
1"
1>
1R
1I
1S
1Y
1Z
1[
0W
0^
1J
19
1+
#620000
0"
0>
0R
0I
0S
#625000
1"
1>
1R
1I
1S
0Y
0_
1`
0Z
0[
1a
1W
1K
0J
18
09
0+
1*
#630000
0"
0>
0R
0I
0S
#635000
1"
1>
1R
1I
1S
1Y
1Z
1[
0W
1^
1d
0e
0j
1J
1l
19
1+
#640000
0"
0>
0R
0I
0S
#645000
1"
1>
1R
1I
1S
0Y
1_
0f
1m
0n
0g
0`
0Z
0[
0a
0h
0o
1e
1W
0d
0e
0M
0L
0K
0J
06
07
08
09
0+
0*
0)
0(
#650000
0"
0>
0R
0I
0S
#655000
1"
1>
1R
1I
1S
1Y
1Z
1[
0W
0^
1J
19
1+
#660000
0"
0>
0R
0I
0S
#665000
1"
1>
1R
1I
1S
0Y
0_
1`
0Z
0[
1a
1W
1K
0J
18
09
0+
1*
#670000
0"
0>
0R
0I
0S
#675000
1"
1>
1R
1I
1S
1Y
1Z
1[
0W
1^
1d
1e
1J
19
1+
#680000
0"
0>
0R
0I
0S
#685000
1"
1>
1R
1I
1S
0Y
1_
1f
1g
0`
0Z
0[
0a
1h
0e
1j
1W
0d
1e
0j
0l
1L
0K
0J
1l
17
08
09
0+
0*
1)
#690000
0"
0>
0R
0I
0S
#695000
1"
1>
1R
1I
1S
1Y
1Z
1[
0W
0^
1J
19
1+
#700000
0"
0>
0R
0I
0S
#705000
1"
1>
1R
1I
1S
0Y
0_
1`
0Z
0[
1a
1W
1K
0J
18
09
0+
1*
#710000
0"
0>
0R
0I
0S
#715000
1"
1>
1R
1I
1S
1Y
1Z
1[
0W
1^
1d
0e
1j
1J
0l
19
1+
#720000
0"
0>
0R
0I
0S
#725000
1"
1>
1R
1I
1S
0Y
1_
0f
0m
1n
0g
0`
0Z
0[
0a
0h
1o
1e
1W
0d
0e
1M
0L
0K
0J
16
07
08
09
0+
0*
0)
1(
#730000
0"
0>
0R
0I
0S
#735000
1"
1>
1R
1I
1S
1Y
1Z
1[
0W
0^
1J
19
1+
#740000
0"
0>
0R
0I
0S
#745000
1"
1>
1R
1I
1S
0Y
0_
1`
0Z
0[
1a
1W
1K
0J
18
09
0+
1*
#750000
0"
0>
0R
0I
0S
#755000
1"
1>
1R
1I
1S
1Y
1Z
1[
0W
1^
1d
1e
1J
19
1+
#760000
0"
0>
0R
0I
0S
#765000
1"
1>
1R
1I
1S
0Y
1_
1f
1g
0`
0Z
0[
0a
1h
0e
0j
1W
0d
1e
1j
1l
1L
0K
0J
0l
17
08
09
0+
0*
1)
#770000
0"
0>
0R
0I
0S
#775000
1"
1>
1R
1I
1S
1Y
1Z
1[
0W
0^
1J
19
1+
#780000
0"
0>
0R
0I
0S
#785000
1"
1>
1R
1I
1S
0Y
0_
1`
0Z
0[
1a
1W
1K
0J
18
09
0+
1*
#790000
0"
0>
0R
0I
0S
#795000
1"
1>
1R
1I
1S
1Y
1Z
1[
0W
1^
1d
0e
0j
1J
1l
19
1+
#800000
0"
0>
0R
0I
0S
#805000
1"
1>
1R
1I
1S
0Y
1_
0f
1m
0n
0g
0`
0Z
0[
0a
0h
0o
1e
1W
0d
0e
0M
0L
0K
0J
06
07
08
09
0+
0*
0)
0(
#810000
0"
0>
0R
0I
0S
#815000
1"
1>
1R
1I
1S
1Y
1Z
1[
0W
0^
1J
19
1+
#820000
0"
0>
0R
0I
0S
#825000
1"
1>
1R
1I
1S
0Y
0_
1`
0Z
0[
1a
1W
1K
0J
18
09
0+
1*
#830000
0"
0>
0R
0I
0S
#835000
1"
1>
1R
1I
1S
1Y
1Z
1[
0W
1^
1d
1e
1J
19
1+
#840000
0"
0>
0R
0I
0S
#845000
1"
1>
1R
1I
1S
0Y
1_
1f
1g
0`
0Z
0[
0a
1h
0e
1j
1W
0d
1e
0j
0l
1L
0K
0J
1l
17
08
09
0+
0*
1)
#850000
0"
0>
0R
0I
0S
#855000
1"
1>
1R
1I
1S
1Y
1Z
1[
0W
0^
1J
19
1+
#860000
0"
0>
0R
0I
0S
#865000
1"
1>
1R
1I
1S
0Y
0_
1`
0Z
0[
1a
1W
1K
0J
18
09
0+
1*
#870000
0"
0>
0R
0I
0S
#875000
1"
1>
1R
1I
1S
1Y
1Z
1[
0W
1^
1d
0e
1j
1J
0l
19
1+
#880000
0"
0>
0R
0I
0S
#885000
1"
1>
1R
1I
1S
0Y
1_
0f
0m
1n
0g
0`
0Z
0[
0a
0h
1o
1e
1W
0d
0e
1M
0L
0K
0J
16
07
08
09
0+
0*
0)
1(
#890000
0"
0>
0R
0I
0S
#895000
1"
1>
1R
1I
1S
1Y
1Z
1[
0W
0^
1J
19
1+
#900000
0"
0>
0R
0I
0S
#905000
1"
1>
1R
1I
1S
0Y
0_
1`
0Z
0[
1a
1W
1K
0J
18
09
0+
1*
#910000
0"
0>
0R
0I
0S
#915000
1"
1>
1R
1I
1S
1Y
1Z
1[
0W
1^
1d
1e
1J
19
1+
#920000
0"
0>
0R
0I
0S
#925000
1"
1>
1R
1I
1S
0Y
1_
1f
1g
0`
0Z
0[
0a
1h
0e
0j
1W
0d
1e
1j
1l
1L
0K
0J
0l
17
08
09
0+
0*
1)
#930000
0"
0>
0R
0I
0S
#935000
1"
1>
1R
1I
1S
1Y
1Z
1[
0W
0^
1J
19
1+
#940000
0"
0>
0R
0I
0S
#945000
1"
1>
1R
1I
1S
0Y
0_
1`
0Z
0[
1a
1W
1K
0J
18
09
0+
1*
#950000
0"
0>
0R
0I
0S
#955000
1"
1>
1R
1I
1S
1Y
1Z
1[
0W
1^
1d
0e
0j
1J
1l
19
1+
#960000
0"
0>
0R
0I
0S
#965000
1"
1>
1R
1I
1S
0Y
1_
0f
1m
0n
0g
0`
0Z
0[
0a
0h
0o
1e
1W
0d
0e
0M
0L
0K
0J
06
07
08
09
0+
0*
0)
0(
#970000
0"
0>
0R
0I
0S
#975000
1"
1>
1R
1I
1S
1Y
1Z
1[
0W
0^
1J
19
1+
#980000
0"
0>
0R
0I
0S
#985000
1"
1>
1R
1I
1S
0Y
0_
1`
0Z
0[
1a
1W
1K
0J
18
09
0+
1*
#990000
0"
0>
0R
0I
0S
#995000
1"
1>
1R
1I
1S
1Y
1Z
1[
0W
1^
1d
1e
1J
19
1+
