Proyect1/simulation/qsim/proyect1.msim.vcd
$comment
	File created using the following command:
		vcd file proyect1.msim.vcd -direction
$end
$date
	Fri May 17 15:30:43 2024
$end
$version
	Questa Intel Starter FPGA Edition Version 2023.3
$end
$timescale
	1ps
$end

$scope module proyect1_vhd_vec_tst $end
$var wire 1 ! clk $end
$var wire 1 " dec [7] $end
$var wire 1 # dec [6] $end
$var wire 1 $ dec [5] $end
$var wire 1 % dec [4] $end
$var wire 1 & dec [3] $end
$var wire 1 ' dec [2] $end
$var wire 1 ( dec [1] $end
$var wire 1 ) dec [0] $end
$var wire 1 * decim [7] $end
$var wire 1 + decim [6] $end
$var wire 1 , decim [5] $end
$var wire 1 - decim [4] $end
$var wire 1 . decim [3] $end
$var wire 1 / decim [2] $end
$var wire 1 0 decim [1] $end
$var wire 1 1 decim [0] $end
$var wire 1 2 reset $end
$var wire 1 3 uni [7] $end
$var wire 1 4 uni [6] $end
$var wire 1 5 uni [5] $end
$var wire 1 6 uni [4] $end
$var wire 1 7 uni [3] $end
$var wire 1 8 uni [2] $end
$var wire 1 9 uni [1] $end
$var wire 1 : uni [0] $end

$scope module i1 $end
$var wire 1 ; gnd $end
$var wire 1 < vcc $end
$var wire 1 = unknown $end
$var wire 1 > devoe $end
$var wire 1 ? devclrn $end
$var wire 1 @ devpor $end
$var wire 1 A ww_devoe $end
$var wire 1 B ww_devclrn $end
$var wire 1 C ww_devpor $end
$var wire 1 D ww_clk $end
$var wire 1 E ww_reset $end
$var wire 1 F ww_dec [7] $end
$var wire 1 G ww_dec [6] $end
$var wire 1 H ww_dec [5] $end
$var wire 1 I ww_dec [4] $end
$var wire 1 J ww_dec [3] $end
$var wire 1 K ww_dec [2] $end
$var wire 1 L ww_dec [1] $end
$var wire 1 M ww_dec [0] $end
$var wire 1 N ww_uni [7] $end
$var wire 1 O ww_uni [6] $end
$var wire 1 P ww_uni [5] $end
$var wire 1 Q ww_uni [4] $end
$var wire 1 R ww_uni [3] $end
$var wire 1 S ww_uni [2] $end
$var wire 1 T ww_uni [1] $end
$var wire 1 U ww_uni [0] $end
$var wire 1 V ww_decim [7] $end
$var wire 1 W ww_decim [6] $end
$var wire 1 X ww_decim [5] $end
$var wire 1 Y ww_decim [4] $end
$var wire 1 Z ww_decim [3] $end
$var wire 1 [ ww_decim [2] $end
$var wire 1 \ ww_decim [1] $end
$var wire 1 ] ww_decim [0] $end
$var wire 1 ^ \clk_out~clkctrl_INCLK_bus\ [3] $end
$var wire 1 _ \clk_out~clkctrl_INCLK_bus\ [2] $end
$var wire 1 ` \clk_out~clkctrl_INCLK_bus\ [1] $end
$var wire 1 a \clk_out~clkctrl_INCLK_bus\ [0] $end
$var wire 1 b \reset~inputclkctrl_INCLK_bus\ [3] $end
$var wire 1 c \reset~inputclkctrl_INCLK_bus\ [2] $end
$var wire 1 d \reset~inputclkctrl_INCLK_bus\ [1] $end
$var wire 1 e \reset~inputclkctrl_INCLK_bus\ [0] $end
$var wire 1 f \clk~inputclkctrl_INCLK_bus\ [3] $end
$var wire 1 g \clk~inputclkctrl_INCLK_bus\ [2] $end
$var wire 1 h \clk~inputclkctrl_INCLK_bus\ [1] $end
$var wire 1 i \clk~inputclkctrl_INCLK_bus\ [0] $end
$var wire 1 j \dec[0]~output_o\ $end
$var wire 1 k \dec[1]~output_o\ $end
$var wire 1 l \dec[2]~output_o\ $end
$var wire 1 m \dec[3]~output_o\ $end
$var wire 1 n \dec[4]~output_o\ $end
$var wire 1 o \dec[5]~output_o\ $end
$var wire 1 p \dec[6]~output_o\ $end
$var wire 1 q \dec[7]~output_o\ $end
$var wire 1 r \uni[0]~output_o\ $end
$var wire 1 s \uni[1]~output_o\ $end
$var wire 1 t \uni[2]~output_o\ $end
$var wire 1 u \uni[3]~output_o\ $end
$var wire 1 v \uni[4]~output_o\ $end
$var wire 1 w \uni[5]~output_o\ $end
$var wire 1 x \uni[6]~output_o\ $end
$var wire 1 y \uni[7]~output_o\ $end
$var wire 1 z \decim[0]~output_o\ $end
$var wire 1 { \decim[1]~output_o\ $end
$var wire 1 | \decim[2]~output_o\ $end
$var wire 1 } \decim[3]~output_o\ $end
$var wire 1 ~ \decim[4]~output_o\ $end
$var wire 1 !! \decim[5]~output_o\ $end
$var wire 1 "! \decim[6]~output_o\ $end
$var wire 1 #! \decim[7]~output_o\ $end
$var wire 1 $! \clk~input_o\ $end
$var wire 1 %! \clk~inputclkctrl_outclk\ $end
$var wire 1 &! \Add0~0_combout\ $end
$var wire 1 '! \cuenta~1_combout\ $end
$var wire 1 (! \Add0~1\ $end
$var wire 1 )! \Add0~2_combout\ $end
$var wire 1 *! \Add0~3\ $end
$var wire 1 +! \Add0~4_combout\ $end
$var wire 1 ,! \Add0~5\ $end
$var wire 1 -! \Add0~6_combout\ $end
$var wire 1 .! \Equal0~0_combout\ $end
$var wire 1 /! \Add0~7\ $end
$var wire 1 0! \Add0~8_combout\ $end
$var wire 1 1! \cuenta~0_combout\ $end
$var wire 1 2! \clk_out~0_combout\ $end
$var wire 1 3! \clk_out~feeder_combout\ $end
$var wire 1 4! \clk_out~q\ $end
$var wire 1 5! \clk_out~clkctrl_outclk\ $end
$var wire 1 6! \cont_dec[0]~4_combout\ $end
$var wire 1 7! \reset~input_o\ $end
$var wire 1 8! \reset~inputclkctrl_outclk\ $end
$var wire 1 9! \cont_decim[0]~3_combout\ $end
$var wire 1 :! \cont_decim~0_combout\ $end
$var wire 1 ;! \cont_decim[2]~1_combout\ $end
$var wire 1 <! \cont_decim~2_combout\ $end
$var wire 1 =! \Equal1~0_combout\ $end
$var wire 1 >! \cont_uni[0]~3_combout\ $end
$var wire 1 ?! \cont_uni~2_combout\ $end
$var wire 1 @! \cont_uni~0_combout\ $end
$var wire 1 A! \cont_uni[2]~1_combout\ $end
$var wire 1 B! \Equal2~0_combout\ $end
$var wire 1 C! \cont_dec[3]~0_combout\ $end
$var wire 1 D! \cont_dec[2]~2_combout\ $end
$var wire 1 E! \cont_dec~1_combout\ $end
$var wire 1 F! \cont_dec~3_combout\ $end
$var wire 1 G! \Mux20~0_combout\ $end
$var wire 1 H! \dec[0]~reg0_q\ $end
$var wire 1 I! \Mux19~0_combout\ $end
$var wire 1 J! \dec[1]~reg0_q\ $end
$var wire 1 K! \Mux18~0_combout\ $end
$var wire 1 L! \dec[2]~reg0_q\ $end
$var wire 1 M! \Mux17~0_combout\ $end
$var wire 1 N! \dec[3]~reg0_q\ $end
$var wire 1 O! \Mux16~0_combout\ $end
$var wire 1 P! \dec[4]~reg0_q\ $end
$var wire 1 Q! \Mux15~0_combout\ $end
$var wire 1 R! \dec[5]~reg0_q\ $end
$var wire 1 S! \Mux14~0_combout\ $end
$var wire 1 T! \dec[6]~reg0_q\ $end
$var wire 1 U! \Mux13~0_combout\ $end
$var wire 1 V! \uni[0]~reg0_q\ $end
$var wire 1 W! \Mux12~0_combout\ $end
$var wire 1 X! \uni[1]~reg0_q\ $end
$var wire 1 Y! \Mux11~0_combout\ $end
$var wire 1 Z! \uni[2]~reg0_q\ $end
$var wire 1 [! \Mux10~0_combout\ $end
$var wire 1 \! \uni[3]~reg0_q\ $end
$var wire 1 ]! \Mux9~0_combout\ $end
$var wire 1 ^! \uni[4]~reg0_q\ $end
$var wire 1 _! \Mux8~0_combout\ $end
$var wire 1 `! \uni[5]~reg0_q\ $end
$var wire 1 a! \Mux7~0_combout\ $end
$var wire 1 b! \uni[6]~reg0_q\ $end
$var wire 1 c! \Mux6~0_combout\ $end
$var wire 1 d! \decim[0]~reg0_q\ $end
$var wire 1 e! \Mux5~0_combout\ $end
$var wire 1 f! \decim[1]~reg0_q\ $end
$var wire 1 g! \Mux4~0_combout\ $end
$var wire 1 h! \decim[2]~reg0_q\ $end
$var wire 1 i! \Mux3~0_combout\ $end
$var wire 1 j! \decim[3]~reg0_q\ $end
$var wire 1 k! \Mux2~0_combout\ $end
$var wire 1 l! \decim[4]~reg0_q\ $end
$var wire 1 m! \Mux1~0_combout\ $end
$var wire 1 n! \decim[5]~reg0_q\ $end
$var wire 1 o! \Mux0~0_combout\ $end
$var wire 1 p! \decim[6]~reg0_q\ $end
$var wire 1 q! cont_dec [3] $end
$var wire 1 r! cont_dec [2] $end
$var wire 1 s! cont_dec [1] $end
$var wire 1 t! cont_dec [0] $end
$var wire 1 u! cont_uni [3] $end
$var wire 1 v! cont_uni [2] $end
$var wire 1 w! cont_uni [1] $end
$var wire 1 x! cont_uni [0] $end
$var wire 1 y! cont_decim [3] $end
$var wire 1 z! cont_decim [2] $end
$var wire 1 {! cont_decim [1] $end
$var wire 1 |! cont_decim [0] $end
$var wire 1 }! cuenta [4] $end
$var wire 1 ~! cuenta [3] $end
$var wire 1 !" cuenta [2] $end
$var wire 1 "" cuenta [1] $end
$var wire 1 #" cuenta [0] $end
$var wire 1 $" \ALT_INV_reset~inputclkctrl_outclk\ $end
$var wire 1 %" \ALT_INV_reset~input_o\ $end
$upscope $end
$upscope $end
$enddefinitions $end
#0
$dumpvars
0!
12
0;
1<
x=
1>
1?
1@
1A
1B
1C
0D
1E
0j
0k
0l
0m
0n
0o
0p
1q
0r
0s
0t
0u
0v
0w
0x
1y
0z
0{
0|
0}
0~
0!!
0"!
1#!
0$!
0%!
1&!
1'!
0(!
0)!
1*!
0+!
0,!
0-!
1.!
1/!
00!
01!
02!
03!
04!
05!
16!
17!
18!
19!
0:!
0;!
0<!
0=!
1>!
0?!
0@!
0A!
0B!
0C!
0D!
0E!
0F!
0G!
0H!
0I!
0J!
0K!
0L!
0M!
0N!
0O!
0P!
0Q!
0R!
1S!
0T!
0U!
0V!
0W!
0X!
0Y!
0Z!
0[!
0\!
0]!
0^!
0_!
0`!
1a!
0b!
0c!
0d!
0e!
0f!
0g!
0h!
0i!
0j!
0k!
0l!
0m!
0n!
1o!
0p!
0$"
0%"
1"
0#
0$
0%
0&
0'
0(
0)
13
04
05
06
07
08
09
0:
1*
0+
0,
0-
0.
0/
00
01
0q!
0r!
0s!
0t!
0u!
0v!
0w!
0x!
0y!
0z!
0{!
0|!
0}!
0~!
0!"
0""
0#"
1f
1g
1h
0i
1^
1_
1`
0a
1b
1c
1d
1e
1F
0G
0H
0I
0J
0K
0L
0M
1N
0O
0P
0Q
0R
0S
0T
0U
1V
0W
0X
0Y
0Z
0[
0\
0]
$end
#2500
1!
1D
1$!
1i
1%!
1#"
0&!
1(!
0.!
1)!
0'!
#5000
0!
0D
0$!
0i
0%!
#7500
1!
1D
1$!
1i
1%!
0#"
1""
0)!
0*!
1&!
0(!
1)!
1*!
1'!
1+!
0+!
#10000
0!
0D
0$!
0i
0%!
#12500
1!
1D
1$!
1i
1%!
1#"
0&!
1(!
0)!
0*!
0'!
1+!
#15000
0!
0D
0$!
0i
0%!
#17500
1!
1D
1$!
1i
1%!
0#"
0""
1!"
0+!
1,!
1)!
1*!
1&!
0(!
0)!
1'!
1+!
0,!
1-!
0-!
#20000
0!
02
0D
0E
07!
0$!
1%"
0e
0i
0%!
08!
1$"
#22500
1!
1D
1$!
1i
1%!
1#"
0&!
1(!
1)!
0'!
#25000
0!
0D
0$!
0i
0%!
#27500
1!
1D
1$!
1i
1%!
0#"
1""
0)!
0*!
1&!
0(!
1)!
1*!
1'!
0+!
1,!
1-!
1+!
0,!
0-!
#30000
0!
0D
0$!
0i
0%!
#32500
1!
1D
1$!
1i
1%!
1#"
0&!
1(!
0)!
0*!
0'!
0+!
1,!
1-!
#35000
0!
0D
0$!
0i
0%!
#37500
1!
1D
1$!
1i
1%!
0#"
0""
0!"
1~!
0-!
0/!
1+!
0,!
1)!
1*!
1&!
0(!
0)!
1'!
0+!
1-!
1/!
10!
11!
00!
01!
#40000
0!
0D
0$!
0i
0%!
#42500
1!
1D
1$!
1i
1%!
1#"
0&!
1(!
1)!
0'!
#45000
0!
0D
0$!
0i
0%!
#47500
1!
1D
1$!
1i
1%!
0#"
1""
0)!
0*!
1&!
0(!
1)!
1*!
1'!
1+!
0+!
#50000
0!
0D
0$!
0i
0%!
#52500
1!
1D
1$!
1i
1%!
1#"
0&!
1(!
0)!
0*!
0'!
1+!
#55000
0!
0D
0$!
0i
0%!
#57500
1!
1D
1$!
1i
1%!
0#"
0""
1!"
0+!
1,!
1)!
1*!
1&!
0(!
0)!
1'!
1+!
0,!
0-!
0/!
10!
1-!
1/!
00!
11!
01!
#60000
0!
0D
0$!
0i
0%!
#62500
1!
1D
1$!
1i
1%!
1#"
0&!
1(!
1)!
0'!
#65000
0!
0D
0$!
0i
0%!
#67500
1!
1D
1$!
1i
1%!
0#"
1""
0)!
0*!
1&!
0(!
1)!
1*!
1'!
0+!
1,!
0-!
0/!
1+!
0,!
1-!
1/!
10!
11!
00!
01!
#70000
0!
0D
0$!
0i
0%!
#72500
1!
1D
1$!
1i
1%!
1#"
0&!
1(!
0)!
0*!
0'!
0+!
1,!
0-!
0/!
10!
11!
#75000
0!
0D
0$!
0i
0%!
#77500
1!
1D
1$!
1i
1%!
0#"
0""
0!"
0~!
1}!
00!
1-!
1/!
1+!
0,!
1)!
1*!
1&!
0(!
1.!
12!
0)!
0+!
0-!
10!
01!
13!
#80000
0!
0D
0$!
0i
0%!
#82500
1!
1D
1$!
1i
1%!
0}!
14!
1a
1'!
00!
11!
01!
15!
1|!
1T!
1b!
1p!
09!
1:!
1c!
1i!
1k!
1m!
1"!
1x
1p
1W
1O
1G
1+
14
1#
#85000
0!
0D
0$!
0i
0%!
#87500
1!
1D
1$!
1i
1%!
1#"
0&!
1(!
0.!
1)!
0'!
#90000
0!
0D
0$!
0i
0%!
#92500
1!
1D
1$!
1i
1%!
0#"
1""
0)!
0*!
1&!
0(!
1)!
1*!
1'!
1+!
0+!
#95000
0!
0D
0$!
0i
0%!
#97500
1!
1D
1$!
1i
1%!
1#"
0&!
1(!
0)!
0*!
0'!
1+!
#100000
0!
0D
0$!
0i
0%!
#102500
1!
1D
1$!
1i
1%!
0#"
0""
1!"
0+!
1,!
1)!
1*!
1&!
0(!
0)!
1'!
1+!
0,!
1-!
0-!
#105000
0!
0D
0$!
0i
0%!
#107500
1!
1D
1$!
1i
1%!
1#"
0&!
1(!
1)!
0'!
#110000
0!
0D
0$!
0i
0%!
#112500
1!
1D
1$!
1i
1%!
0#"
1""
0)!
0*!
1&!
0(!
1)!
1*!
1'!
0+!
1,!
1-!
1+!
0,!
0-!
#115000
0!
0D
0$!
0i
0%!
#117500
1!
1D
1$!
1i
1%!
1#"
0&!
1(!
0)!
0*!
0'!
0+!
1,!
1-!
#120000
0!
0D
0$!
0i
0%!
#122500
1!
1D
1$!
1i
1%!
0#"
0""
0!"
1~!
0-!
0/!
1+!
0,!
1)!
1*!
1&!
0(!
0)!
1'!
0+!
1-!
1/!
10!
11!
00!
01!
#125000
0!
0D
0$!
0i
0%!
#127500
1!
1D
1$!
1i
1%!
1#"
0&!
1(!
1)!
0'!
#130000
0!
0D
0$!
0i
0%!
#132500
1!
1D
1$!
1i
1%!
0#"
1""
0)!
0*!
1&!
0(!
1)!
1*!
1'!
1+!
0+!
#135000
0!
0D
0$!
0i
0%!
#137500
1!
1D
1$!
1i
1%!
1#"
0&!
1(!
0)!
0*!
0'!
1+!
#140000
0!
0D
0$!
0i
0%!
#142500
1!
1D
1$!
1i
1%!
0#"
0""
1!"
0+!
1,!
1)!
1*!
1&!
0(!
0)!
1'!
1+!
0,!
0-!
0/!
10!
1-!
1/!
00!
11!
01!
#145000
0!
0D
0$!
0i
0%!
#147500
1!
1D
1$!
1i
1%!
1#"
0&!
1(!
1)!
0'!
#150000
0!
0D
0$!
0i
0%!
#152500
1!
1D
1$!
1i
1%!
0#"
1""
0)!
0*!
1&!
0(!
1)!
1*!
1'!
0+!
1,!
0-!
0/!
1+!
0,!
1-!
1/!
10!
11!
00!
01!
#155000
0!
0D
0$!
0i
0%!
#157500
1!
1D
1$!
1i
1%!
1#"
0&!
1(!
0)!
0*!
0'!
0+!
1,!
0-!
0/!
10!
11!
#160000
0!
0D
0$!
0i
0%!
#162500
1!
1D
1$!
1i
1%!
0#"
0""
0!"
0~!
1}!
00!
1-!
1/!
1+!
0,!
1)!
1*!
1&!
0(!
1.!
02!
0)!
0+!
0-!
10!
01!
03!
#165000
0!
0D
0$!
0i
0%!
#167500
1!
1D
1$!
1i
1%!
0}!
04!
0a
1'!
00!
11!
01!
05!
#170000
0!
0D
0$!
0i
0%!
#172500
1!
1D
1$!
1i
1%!
1#"
0&!
1(!
0.!
1)!
0'!
#175000
0!
0D
0$!
0i
0%!
#177500
1!
1D
1$!
1i
1%!
0#"
1""
0)!
0*!
1&!
0(!
1)!
1*!
1'!
1+!
0+!
#180000
0!
0D
0$!
0i
0%!
#182500
1!
1D
1$!
1i
1%!
1#"
0&!
1(!
0)!
0*!
0'!
1+!
#185000
0!
0D
0$!
0i
0%!
#187500
1!
1D
1$!
1i
1%!
0#"
0""
1!"
0+!
1,!
1)!
1*!
1&!
0(!
0)!
1'!
1+!
0,!
1-!
0-!
#190000
0!
0D
0$!
0i
0%!
#192500
1!
1D
1$!
1i
1%!
1#"
0&!
1(!
1)!
0'!
#195000
0!
0D
0$!
0i
0%!
#197500
1!
1D
1$!
1i
1%!
0#"
1""
0)!
0*!
1&!
0(!
1)!
1*!
1'!
0+!
1,!
1-!
1+!
0,!
0-!
#200000
0!
0D
0$!
0i
0%!
#202500
1!
1D
1$!
1i
1%!
1#"
0&!
1(!
0)!
0*!
0'!
0+!
1,!
1-!
#205000
0!
0D
0$!
0i
0%!
#207500
1!
1D
1$!
1i
1%!
0#"
0""
0!"
1~!
0-!
0/!
1+!
0,!
1)!
1*!
1&!
0(!
0)!
1'!
0+!
1-!
1/!
10!
11!
00!
01!
#210000
0!
0D
0$!
0i
0%!
#212500
1!
1D
1$!
1i
1%!
1#"
0&!
1(!
1)!
0'!
#215000
0!
0D
0$!
0i
0%!
#217500
1!
1D
1$!
1i
1%!
0#"
1""
0)!
0*!
1&!
0(!
1)!
1*!
1'!
1+!
0+!
#220000
0!
0D
0$!
0i
0%!
#222500
1!
1D
1$!
1i
1%!
1#"
0&!
1(!
0)!
0*!
0'!
1+!
#225000
0!
0D
0$!
0i
0%!
#227500
1!
1D
1$!
1i
1%!
0#"
0""
1!"
0+!
1,!
1)!
1*!
1&!
0(!
0)!
1'!
1+!
0,!
0-!
0/!
10!
1-!
1/!
00!
11!
01!
#230000
0!
0D
0$!
0i
0%!
#232500
1!
1D
1$!
1i
1%!
1#"
0&!
1(!
1)!
0'!
#235000
0!
0D
0$!
0i
0%!
#237500
1!
1D
1$!
1i
1%!
0#"
1""
0)!
0*!
1&!
0(!
1)!
1*!
1'!
0+!
1,!
0-!
0/!
1+!
0,!
1-!
1/!
10!
11!
00!
01!
#240000
0!
0D
0$!
0i
0%!
#242500
1!
1D
1$!
1i
1%!
1#"
0&!
1(!
0)!
0*!
0'!
0+!
1,!
0-!
0/!
10!
11!
#245000
0!
0D
0$!
0i
0%!
#247500
1!
1D
1$!
1i
1%!
0#"
0""
0!"
0~!
1}!
00!
1-!
1/!
1+!
0,!
1)!
1*!
1&!
0(!
1.!
12!
0)!
0+!
0-!
10!
01!
13!
#250000
0!
0D
0$!
0i
0%!
#252500
1!
1D
1$!
1i
1%!
0}!
14!
1a
1'!
00!
11!
01!
15!
0|!
1{!
1d!
1j!
1l!
1n!
19!
0c!
1g!
0i!
0k!
0o!
1!!
1~
1}
1z
1X
1Y
1Z
1]
11
1.
1-
1,
#255000
0!
0D
0$!
0i
0%!
#257500
1!
1D
1$!
1i
1%!
1#"
0&!
1(!
0.!
1)!
0'!
#260000
0!
0D
0$!
0i
0%!
#262500
1!
1D
1$!
1i
1%!
0#"
1""
0)!
0*!
1&!
0(!
1)!
1*!
1'!
1+!
0+!
#265000
0!
0D
0$!
0i
0%!
#267500
1!
1D
1$!
1i
1%!
1#"
0&!
1(!
0)!
0*!
0'!
1+!
#270000
0!
0D
0$!
0i
0%!
#272500
1!
1D
1$!
1i
1%!
0#"
0""
1!"
0+!
1,!
1)!
1*!
1&!
0(!
0)!
1'!
1+!
0,!
1-!
0-!
#275000
0!
0D
0$!
0i
0%!
#277500
1!
1D
1$!
1i
1%!
1#"
0&!
1(!
1)!
0'!
#280000
0!
0D
0$!
0i
0%!
#282500
1!
1D
1$!
1i
1%!
0#"
1""
0)!
0*!
1&!
0(!
1)!
1*!
1'!
0+!
1,!
1-!
1+!
0,!
0-!
#285000
0!
0D
0$!
0i
0%!
#287500
1!
1D
1$!
1i
1%!
1#"
0&!
1(!
0)!
0*!
0'!
0+!
1,!
1-!
#290000
0!
0D
0$!
0i
0%!
#292500
1!
1D
1$!
1i
1%!
0#"
0""
0!"
1~!
0-!
0/!
1+!
0,!
1)!
1*!
1&!
0(!
0)!
1'!
0+!
1-!
1/!
10!
11!
00!
01!
#295000
0!
0D
0$!
0i
0%!
#297500
1!
1D
1$!
1i
1%!
1#"
0&!
1(!
1)!
0'!
#300000
0!
0D
0$!
0i
0%!
#302500
1!
1D
1$!
1i
1%!
0#"
1""
0)!
0*!
1&!
0(!
1)!
1*!
1'!
1+!
0+!
#305000
0!
0D
0$!
0i
0%!
#307500
1!
1D
1$!
1i
1%!
1#"
0&!
1(!
0)!
0*!
0'!
1+!
#310000
0!
0D
0$!
0i
0%!
#312500
1!
1D
1$!
1i
1%!
0#"
0""
1!"
0+!
1,!
1)!
1*!
1&!
0(!
0)!
1'!
1+!
0,!
0-!
0/!
10!
1-!
1/!
00!
11!
01!
#315000
0!
0D
0$!
0i
0%!
#317500
1!
1D
1$!
1i
1%!
1#"
0&!
1(!
1)!
0'!
#320000
0!
0D
0$!
0i
0%!
#322500
1!
1D
1$!
1i
1%!
0#"
1""
0)!
0*!
1&!
0(!
1)!
1*!
1'!
0+!
1,!
0-!
0/!
1+!
0,!
1-!
1/!
10!
11!
00!
01!
#325000
0!
0D
0$!
0i
0%!
#327500
1!
1D
1$!
1i
1%!
1#"
0&!
1(!
0)!
0*!
0'!
0+!
1,!
0-!
0/!
10!
11!
#330000
0!
0D
0$!
0i
0%!
#332500
1!
1D
1$!
1i
1%!
0#"
0""
0!"
0~!
1}!
00!
1-!
1/!
1+!
0,!
1)!
1*!
1&!
0(!
1.!
02!
0)!
0+!
0-!
10!
01!
03!
#335000
0!
0D
0$!
0i
0%!
#337500
1!
1D
1$!
1i
1%!
0}!
04!
0a
1'!
00!
11!
01!
05!
#340000
0!
0D
0$!
0i
0%!
#342500
1!
1D
1$!
1i
1%!
1#"
0&!
1(!
0.!
1)!
0'!
#345000
0!
0D
0$!
0i
0%!
#347500
1!
1D
1$!
1i
1%!
0#"
1""
0)!
0*!
1&!
0(!
1)!
1*!
1'!
1+!
0+!
#350000
0!
0D
0$!
0i
0%!
#352500
1!
1D
1$!
1i
1%!
1#"
0&!
1(!
0)!
0*!
0'!
1+!
#355000
0!
0D
0$!
0i
0%!
#357500
1!
1D
1$!
1i
1%!
0#"
0""
1!"
0+!
1,!
1)!
1*!
1&!
0(!
0)!
1'!
1+!
0,!
1-!
0-!
#360000
0!
0D
0$!
0i
0%!
#362500
1!
1D
1$!
1i
1%!
1#"
0&!
1(!
1)!
0'!
#365000
0!
0D
0$!
0i
0%!
#367500
1!
1D
1$!
1i
1%!
0#"
1""
0)!
0*!
1&!
0(!
1)!
1*!
1'!
0+!
1,!
1-!
1+!
0,!
0-!
#370000
0!
0D
0$!
0i
0%!
#372500
1!
1D
1$!
1i
1%!
1#"
0&!
1(!
0)!
0*!
0'!
0+!
1,!
1-!
#375000
0!
0D
0$!
0i
0%!
#377500
1!
1D
1$!
1i
1%!
0#"
0""
0!"
1~!
0-!
0/!
1+!
0,!
1)!
1*!
1&!
0(!
0)!
1'!
0+!
1-!
1/!
10!
11!
00!
01!
#380000
0!
0D
0$!
0i
0%!
#382500
1!
1D
1$!
1i
1%!
1#"
0&!
1(!
1)!
0'!
#385000
0!
0D
0$!
0i
0%!
#387500
1!
1D
1$!
1i
1%!
0#"
1""
0)!
0*!
1&!
0(!
1)!
1*!
1'!
1+!
0+!
#390000
0!
0D
0$!
0i
0%!
#392500
1!
1D
1$!
1i
1%!
1#"
0&!
1(!
0)!
0*!
0'!
1+!
#395000
0!
0D
0$!
0i
0%!
#397500
1!
1D
1$!
1i
1%!
0#"
0""
1!"
0+!
1,!
1)!
1*!
1&!
0(!
0)!
1'!
1+!
0,!
0-!
0/!
10!
1-!
1/!
00!
11!
01!
#400000
0!
0D
0$!
0i
0%!
#402500
1!
1D
1$!
1i
1%!
1#"
0&!
1(!
1)!
0'!
#405000
0!
0D
0$!
0i
0%!
#407500
1!
1D
1$!
1i
1%!
0#"
1""
0)!
0*!
1&!
0(!
1)!
1*!
1'!
0+!
1,!
0-!
0/!
1+!
0,!
1-!
1/!
10!
11!
00!
01!
#410000
0!
0D
0$!
0i
0%!
#412500
1!
1D
1$!
1i
1%!
1#"
0&!
1(!
0)!
0*!
0'!
0+!
1,!
0-!
0/!
10!
11!
#415000
0!
0D
0$!
0i
0%!
#417500
1!
1D
1$!
1i
1%!
0#"
0""
0!"
0~!
1}!
00!
1-!
1/!
1+!
0,!
1)!
1*!
1&!
0(!
1.!
12!
0)!
0+!
0-!
10!
01!
13!
#420000
0!
0D
0$!
0i
0%!
#422500
1!
1D
1$!
1i
1%!
0}!
14!
1a
1'!
00!
11!
01!
15!
1|!
0d!
1h!
0j!
0l!
0p!
09!
0:!
1;!
0g!
1k!
0"!
0~
0}
1|
0z
0W
0Y
0Z
1[
0]
01
1/
0.
0-
0+
#425000
0!
0D
0$!
0i
0%!
#427500
1!
1D
1$!
1i
1%!
1#"
0&!
1(!
0.!
1)!
0'!
#430000
0!
0D
0$!
0i
0%!
#432500
1!
1D
1$!
1i
1%!
0#"
1""
0)!
0*!
1&!
0(!
1)!
1*!
1'!
1+!
0+!
#435000
0!
0D
0$!
0i
0%!
#437500
1!
1D
1$!
1i
1%!
1#"
0&!
1(!
0)!
0*!
0'!
1+!
#440000
0!
0D
0$!
0i
0%!
#442500
1!
1D
1$!
1i
1%!
0#"
0""
1!"
0+!
1,!
1)!
1*!
1&!
0(!
0)!
1'!
1+!
0,!
1-!
0-!
#445000
0!
0D
0$!
0i
0%!
#447500
1!
1D
1$!
1i
1%!
1#"
0&!
1(!
1)!
0'!
#450000
0!
0D
0$!
0i
0%!
#452500
1!
1D
1$!
1i
1%!
0#"
1""
0)!
0*!
1&!
0(!
1)!
1*!
1'!
0+!
1,!
1-!
1+!
0,!
0-!
#455000
0!
0D
0$!
0i
0%!
#457500
1!
1D
1$!
1i
1%!
1#"
0&!
1(!
0)!
0*!
0'!
0+!
1,!
1-!
#460000
0!
0D
0$!
0i
0%!
#462500
1!
1D
1$!
1i
1%!
0#"
0""
0!"
1~!
0-!
0/!
1+!
0,!
1)!
1*!
1&!
0(!
0)!
1'!
0+!
1-!
1/!
10!
11!
00!
01!
#465000
0!
0D
0$!
0i
0%!
#467500
1!
1D
1$!
1i
1%!
1#"
0&!
1(!
1)!
0'!
#470000
0!
0D
0$!
0i
0%!
#472500
1!
1D
1$!
1i
1%!
0#"
1""
0)!
0*!
1&!
0(!
1)!
1*!
1'!
1+!
0+!
#475000
0!
0D
0$!
0i
0%!
#477500
1!
1D
1$!
1i
1%!
1#"
0&!
1(!
0)!
0*!
0'!
1+!
#480000
0!
0D
0$!
0i
0%!
#482500
1!
1D
1$!
1i
1%!
0#"
0""
1!"
0+!
1,!
1)!
1*!
1&!
0(!
0)!
1'!
1+!
0,!
0-!
0/!
10!
1-!
1/!
00!
11!
01!
#485000
0!
0D
0$!
0i
0%!
#487500
1!
1D
1$!
1i
1%!
1#"
0&!
1(!
1)!
0'!
#490000
0!
0D
0$!
0i
0%!
#492500
1!
1D
1$!
1i
1%!
0#"
1""
0)!
0*!
1&!
0(!
1)!
1*!
1'!
0+!
1,!
0-!
0/!
1+!
0,!
1-!
1/!
10!
11!
00!
01!
#495000
0!
0D
0$!
0i
0%!
#497500
1!
1D
1$!
1i
1%!
1#"
0&!
1(!
0)!
0*!
0'!
0+!
1,!
0-!
0/!
10!
11!
#500000
0!
0D
0$!
0i
0%!
#502500
1!
1D
1$!
1i
1%!
0#"
0""
0!"
0~!
1}!
00!
1-!
1/!
1+!
0,!
1)!
1*!
1&!
0(!
1.!
02!
0)!
0+!
0-!
10!
01!
03!
#505000
0!
0D
0$!
0i
0%!
#507500
1!
1D
1$!
1i
1%!
0}!
04!
0a
1'!
00!
11!
01!
05!
#510000
0!
0D
0$!
0i
0%!
#512500
1!
1D
1$!
1i
1%!
1#"
0&!
1(!
0.!
1)!
0'!
#515000
0!
0D
0$!
0i
0%!
#517500
1!
1D
1$!
1i
1%!
0#"
1""
0)!
0*!
1&!
0(!
1)!
1*!
1'!
1+!
0+!
#520000
0!
0D
0$!
0i
0%!
#522500
1!
1D
1$!
1i
1%!
1#"
0&!
1(!
0)!
0*!
0'!
1+!
#525000
0!
0D
0$!
0i
0%!
#527500
1!
1D
1$!
1i
1%!
0#"
0""
1!"
0+!
1,!
1)!
1*!
1&!
0(!
0)!
1'!
1+!
0,!
1-!
0-!
#530000
0!
0D
0$!
0i
0%!
#532500
1!
1D
1$!
1i
1%!
1#"
0&!
1(!
1)!
0'!
#535000
0!
0D
0$!
0i
0%!
#537500
1!
1D
1$!
1i
1%!
0#"
1""
0)!
0*!
1&!
0(!
1)!
1*!
1'!
0+!
1,!
1-!
1+!
0,!
0-!
#540000
0!
0D
0$!
0i
0%!
#542500
1!
1D
1$!
1i
1%!
1#"
0&!
1(!
0)!
0*!
0'!
0+!
1,!
1-!
#545000
0!
0D
0$!
0i
0%!
